v 20130925 2
N 41400 55500 43200 55500 4
C 26700 56000 1 90 0 capacitor-1.sym
{
T 26000 56200 5 10 0 0 90 0 1
device=CAPACITOR
T 26200 56300 5 10 1 1 90 0 1
refdes=C1
T 25800 56200 5 10 0 0 90 0 1
symversion=0.1
T 26900 56200 5 10 1 1 90 0 1
value=0.068u
}
C 17600 56800 1 0 0 capacitor-1.sym
{
T 17800 57500 5 10 0 0 0 0 1
device=CAPACITOR
T 17800 57300 5 10 1 1 0 0 1
refdes=C6
T 17800 57700 5 10 0 0 0 0 1
symversion=0.1
T 17800 56600 5 10 1 1 0 0 1
value=0.0022u
}
C 19700 56900 1 0 0 resistor-2.sym
{
T 20100 57250 5 10 0 0 0 0 1
device=RESISTOR
T 19900 57200 5 10 1 1 0 0 1
refdes=R11
T 19900 56700 5 10 1 1 0 0 1
value=4.7k
}
C 22100 59100 1 90 0 resistor-2.sym
{
T 21750 59500 5 10 0 0 90 0 1
device=RESISTOR
T 21800 59300 5 10 1 1 90 0 1
refdes=R4
T 22100 59300 5 10 1 1 0 0 1
value=47k
}
C 22100 57500 1 90 0 resistor-2.sym
{
T 21750 57900 5 10 0 0 90 0 1
device=RESISTOR
T 21800 57700 5 10 1 1 90 0 1
refdes=R3
T 22100 57700 5 10 1 1 0 0 1
value=100k
}
C 18400 54400 1 0 0 resistor-2.sym
{
T 18800 54750 5 10 0 0 0 0 1
device=RESISTOR
T 18600 54700 5 10 1 1 0 0 1
refdes=R1
T 18600 54200 5 10 1 1 0 0 1
value=22k
}
C 22200 56500 1 90 1 diode-1.sym
{
T 21600 56100 5 10 0 0 90 6 1
device=DIODE
T 21700 56200 5 10 1 1 90 6 1
refdes=D4
T 22200 56500 5 10 0 0 90 0 1
value=1SS133
}
C 20100 52900 1 90 0 resistor-2.sym
{
T 19750 53300 5 10 0 0 90 0 1
device=RESISTOR
T 19800 53100 5 10 1 1 90 0 1
refdes=R2
T 20100 53100 5 10 1 1 0 0 1
value=10k
}
C 21500 54000 1 0 0 npn-1.sym
{
T 22100 54500 5 10 0 0 0 0 1
device=NPN_TRANSISTOR
T 22100 54500 5 10 1 1 0 0 1
refdes=Q1
T 22600 55300 5 10 0 1 270 0 1
value=2SC2603F
}
C 16900 56000 1 0 0 gnd-1.sym
N 17600 57000 17000 57000 4
N 17000 56300 17000 57000 4
C 21900 51900 1 0 0 gnd-1.sym
N 22000 52200 22000 54000 4
C 19900 51900 1 0 0 gnd-1.sym
N 20000 52200 20000 52900 4
N 22000 59100 22000 58400 4
N 22000 57500 22000 56500 4
N 20600 57000 22000 57000 4
N 19700 57000 18500 57000 4
N 22000 55600 22000 55000 4
N 21500 54500 19300 54500 4
N 20000 53800 20000 54500 4
N 18400 54500 17300 54500 4
{
T 16900 54400 5 10 1 1 0 0 1
netname=trig
}
N 23000 58800 22000 58800 4
N 22000 60000 22000 61800 4
N 23500 59300 23500 61800 4
C 21800 61800 1 0 0 vcc-1.sym
C 23300 61800 1 0 0 vcc-1.sym
C 25100 59100 1 90 0 resistor-2.sym
{
T 24750 59500 5 10 0 0 90 0 1
device=RESISTOR
T 24800 59300 5 10 1 1 90 0 1
refdes=R13
T 25100 59300 5 10 1 1 0 0 1
value=47k
}
N 25000 60000 25000 61800 4
C 24800 61800 1 0 0 vcc-1.sym
N 26000 61000 25000 61000 4
N 25000 59100 25000 58800 4
N 25000 58800 26500 58800 4
C 26600 57600 1 90 0 resistor-2.sym
{
T 26250 58000 5 10 0 0 90 0 1
device=RESISTOR
T 26300 57800 5 10 1 1 90 0 1
refdes=R12
T 26600 57800 5 10 1 1 0 0 1
value=100k
}
N 26500 58500 26500 60500 4
N 26500 57600 26500 56900 4
N 22000 55200 26500 55200 4
N 26500 55200 26500 56000 4
C 23600 52900 1 90 0 resistor-2.sym
{
T 23250 53300 5 10 0 0 90 0 1
device=RESISTOR
T 23300 53100 5 10 1 1 90 0 1
refdes=R19
T 23600 53100 5 10 1 1 0 0 1
value=2.2k
}
C 23400 51900 1 0 0 gnd-1.sym
N 23500 52200 23500 52900 4
N 23500 53800 23500 58300 4
C 25500 54700 1 180 1 diode-1.sym
{
T 25900 54100 5 10 0 0 180 6 1
device=DIODE
T 25800 54200 5 10 1 1 180 6 1
refdes=D7
T 25500 54700 5 10 0 0 180 0 1
value=1SS133
}
N 25500 54500 23500 54500 4
C 27300 54400 1 0 0 resistor-2.sym
{
T 27700 54750 5 10 0 0 0 0 1
device=RESISTOR
T 27500 54700 5 10 1 1 0 0 1
refdes=R21
T 27500 54200 5 10 1 1 0 0 1
value=2.2k
}
N 27300 54500 26400 54500 4
C 28800 53800 1 270 0 capacitor-2.sym
{
T 29500 53600 5 10 0 0 270 0 1
device=POLARIZED_CAPACITOR
T 28500 53400 5 10 1 1 0 0 1
refdes=C33
T 29700 53600 5 10 0 0 270 0 1
symversion=0.1
T 28400 53100 5 10 1 1 0 0 1
value=0.33u
}
N 29000 54500 29000 53800 4
C 28900 51900 1 0 0 gnd-1.sym
N 29000 52200 29000 52900 4
C 31100 52400 1 90 0 resistor-2.sym
{
T 30750 52800 5 10 0 0 90 0 1
device=RESISTOR
T 30800 52600 5 10 1 1 90 0 1
refdes=RVR2
T 31100 52600 5 10 1 1 0 0 1
value=100k
}
C 30900 51900 1 0 0 gnd-1.sym
N 31000 52200 31000 52400 4
C 31100 53500 1 90 0 resistor-2.sym
{
T 30750 53900 5 10 0 0 90 0 1
device=RESISTOR
T 30800 53700 5 10 1 1 90 0 1
refdes=R57
T 31100 53700 5 10 1 1 0 0 1
value=22k
}
N 31000 53500 31000 53300 4
N 31000 54500 31000 54400 4
C 31400 54400 1 0 0 resistor-2.sym
{
T 31800 54750 5 10 0 0 0 0 1
device=RESISTOR
T 31600 54700 5 10 1 1 0 0 1
refdes=R26
T 31600 54200 5 10 1 1 0 0 1
value=330k
}
N 28200 54500 31400 54500 4
{
T 28800 54600 5 10 1 1 0 0 1
netname=env3
}
C 33100 55600 1 90 0 resistor-2.sym
{
T 32750 56000 5 10 0 0 90 0 1
device=RESISTOR
T 32800 55800 5 10 1 1 90 0 1
refdes=R27
T 33100 55800 5 10 1 1 0 0 1
value=1.5MEG
}
N 33000 56500 33000 56800 4
C 32800 56800 1 0 0 vcc-1.sym
N 33000 55600 33000 54500 4
C 36300 55600 1 0 0 resistor-2.sym
{
T 36700 55950 5 10 0 0 0 0 1
device=RESISTOR
T 36500 55900 5 10 1 1 0 0 1
refdes=R28
T 36500 55400 5 10 1 1 0 0 1
value=150k
}
N 32300 54500 36000 54500 4
N 36300 55700 35000 55700 4
N 35000 55700 35000 54500 4
N 37200 55700 38400 55700 4
N 38000 54300 38000 55700 4
N 38000 54300 37000 54300 4
C 34900 51900 1 0 0 gnd-1.sym
N 36000 54100 35000 54100 4
C 38400 55200 1 0 0 resistor-2.sym
{
T 38800 55550 5 10 0 0 0 0 1
device=RESISTOR
T 38400 55000 5 10 1 1 0 0 1
refdes=R31
T 38900 55000 5 10 1 1 0 0 1
value=100k
}
C 38400 55600 1 0 0 resistor-2.sym
{
T 38800 55950 5 10 0 0 0 0 1
device=RESISTOR
T 38400 55900 5 10 1 1 0 0 1
refdes=R29
T 38900 55900 5 10 1 1 0 0 1
value=100k
}
N 38400 55300 38000 55300 4
N 40400 55700 39300 55700 4
N 39300 55300 40400 55300 4
N 40000 54500 40000 55300 4
C 39900 51900 1 0 0 gnd-1.sym
N 40000 53500 40000 52200 4
C 40800 56900 1 0 0 resistor-2.sym
{
T 41200 57250 5 10 0 0 0 0 1
device=RESISTOR
T 41000 57200 5 10 1 1 0 0 1
refdes=R30
T 41000 56700 5 10 1 1 0 0 1
value=100k
}
N 40800 57000 40000 57000 4
N 40000 57000 40000 55700 4
N 42500 55500 42500 57000 4
N 41700 57000 42500 57000 4
C 41900 53900 1 0 0 resistor-2.sym
{
T 42300 54250 5 10 0 0 0 0 1
device=RESISTOR
T 42100 54200 5 10 1 1 0 0 1
refdes=R23
T 42100 53700 5 10 1 1 0 0 1
value=100k
}
C 41600 52500 1 90 0 resistor-2.sym
{
T 41250 52900 5 10 0 0 90 0 1
device=RESISTOR
T 41300 52700 5 10 1 1 90 0 1
refdes=R24
T 41700 52900 5 10 1 1 0 0 1
value=22k
}
C 41400 51900 1 0 0 gnd-1.sym
N 41500 52500 41500 52200 4
N 41500 54000 41500 53400 4
C 43200 55400 1 0 0 resistor-2.sym
{
T 43600 55750 5 10 0 0 0 0 1
device=RESISTOR
T 43400 55700 5 10 1 1 0 0 1
refdes=R59
T 43400 55200 5 10 1 1 0 0 1
value=47k
}
C 45000 56300 1 0 0 capacitor-1.sym
{
T 45200 57000 5 10 0 0 0 0 1
device=CAPACITOR
T 45200 56800 5 10 1 1 0 0 1
refdes=C14
T 45200 57200 5 10 0 0 0 0 1
symversion=0.1
T 45500 56300 5 10 1 1 0 0 1
value=0.033u
}
C 46500 51900 1 0 0 gnd-1.sym
N 47400 55100 46600 55100 4
N 46600 52200 46600 55100 4
C 45500 58500 1 270 0 npn-1.sym
{
T 46000 57900 5 10 0 0 90 8 1
device=NPN_TRANSISTOR
T 46000 57900 5 10 1 1 90 8 1
refdes=Q11
T 46800 57400 5 10 0 1 0 8 1
value=2SC2603F
}
C 47000 57900 1 0 0 resistor-2.sym
{
T 47400 58250 5 10 0 0 0 0 1
device=RESISTOR
T 47200 58200 5 10 1 1 0 0 1
refdes=R51
T 47200 57700 5 10 1 1 0 0 1
value=2.2k
}
C 46100 59300 1 90 0 resistor-2.sym
{
T 45750 59700 5 10 0 0 90 0 1
device=RESISTOR
T 45800 59500 5 10 1 1 90 0 1
refdes=R47
T 46200 59700 5 10 1 1 0 0 1
value=330k
}
N 44100 55500 47400 55500 4
N 45000 56500 44500 56500 4
N 44500 55500 44500 58000 4
N 44500 58000 45500 58000 4
N 46500 58000 47000 58000 4
N 48400 55300 51800 55300 4
{
T 49600 56600 5 10 1 1 0 0 1
netname=vco
}
N 49500 55300 49500 58000 4
N 49500 58000 47900 58000 4
N 45900 56500 49500 56500 4
N 46000 58500 46000 59300 4
C 52800 56400 1 0 0 resistor-2.sym
{
T 53200 56750 5 10 0 0 0 0 1
device=RESISTOR
T 53000 56700 5 10 1 1 0 0 1
refdes=R52
T 53000 56200 5 10 1 1 0 0 1
value=10k
}
C 51200 58100 1 90 1 diode-1.sym
{
T 50600 57700 5 10 0 0 90 6 1
device=DIODE
T 50700 57800 5 10 1 1 90 6 1
refdes=D12
T 51200 58100 5 10 0 0 90 0 1
value=1SS133
}
N 51000 58100 51000 58600 4
C 51100 58600 1 90 0 resistor-2.sym
{
T 50750 59000 5 10 0 0 90 0 1
device=RESISTOR
T 50800 58800 5 10 1 1 90 0 1
refdes=R48
T 51100 58800 5 10 1 1 0 0 1
value=22k
}
N 27000 61000 51000 61000 4
N 51000 61000 51000 59500 4
N 51000 54900 51800 54900 4
N 49500 56500 52800 56500 4
C 51100 52400 1 90 0 resistor-2.sym
{
T 50750 52800 5 10 0 0 90 0 1
device=RESISTOR
T 50800 52600 5 10 1 1 90 0 1
refdes=R50
T 51100 52600 5 10 1 1 0 0 1
value=47k
}
C 50900 51900 1 0 0 gnd-1.sym
N 51000 52200 51000 52400 4
N 51000 53300 51000 57200 4
C 52200 53300 1 0 0 resistor-2.sym
{
T 52600 53650 5 10 0 0 0 0 1
device=RESISTOR
T 52400 53600 5 10 1 1 0 0 1
refdes=R49
T 52400 53100 5 10 1 1 0 0 1
value=100k
}
N 52200 53400 51000 53400 4
N 53600 53400 53100 53400 4
N 42800 54000 53600 54000 4
C 54900 55800 1 90 1 diode-1.sym
{
T 54300 55400 5 10 0 0 90 6 1
device=DIODE
T 54400 55500 5 10 1 1 90 6 1
refdes=D10
T 54900 55800 5 10 0 0 90 0 1
value=1SS133
}
C 55300 54900 1 270 1 diode-1.sym
{
T 55900 55300 5 10 0 0 270 6 1
device=DIODE
T 55800 55200 5 10 1 1 270 6 1
refdes=D11
T 55300 54900 5 10 0 0 270 0 1
value=1SS133
}
C 54600 54400 1 0 0 gnd-1.sym
N 54700 54700 54700 54900 4
C 55400 54400 1 0 0 gnd-1.sym
N 55500 54700 55500 54900 4
N 55500 56500 55500 55800 4
N 54700 55800 54700 56500 4
C 40500 53500 1 0 1 pnp-1.sym
{
T 39900 54000 5 10 0 0 0 6 1
device=PNP_TRANSISTOR
T 39900 54000 5 10 1 1 0 6 1
refdes=Q10
T 40500 53500 5 10 0 0 0 0 1
value=2SA1115F
}
C 23000 59300 1 180 1 pnp-1.sym
{
T 23600 58800 5 10 0 0 180 6 1
device=PNP_TRANSISTOR
T 23600 58800 5 10 1 1 180 6 1
refdes=Q2
T 23000 59300 5 10 0 0 180 0 1
value=2SA1115F
}
C 26000 60500 1 270 1 pnp-1.sym
{
T 26500 61100 5 10 0 0 90 2 1
device=PNP_TRANSISTOR
T 26500 61100 5 10 1 1 90 2 1
refdes=Q7
T 26000 60500 5 10 0 0 90 8 1
value=2SA1115F
}
N 46000 60200 46000 61000 4
N 40500 54000 41900 54000 4
C 14000 48500 1 0 0 resistor-2.sym
{
T 14400 48850 5 10 0 0 0 0 1
device=RESISTOR
T 14200 48800 5 10 1 1 0 0 1
refdes=R38
T 14200 48300 5 10 1 1 0 0 1
value=4.7k
}
C 17300 50000 1 0 0 resistor-2.sym
{
T 17700 50350 5 10 0 0 0 0 1
device=RESISTOR
T 17500 50300 5 10 1 1 0 0 1
refdes=R37
T 17500 49800 5 10 1 1 0 0 1
value=10k
}
N 14900 48600 17000 48600 4
N 17300 50100 16000 50100 4
N 16000 50100 16000 48600 4
N 19000 50100 18200 50100 4
N 19000 43400 19000 50100 4
N 18000 48400 19000 48400 4
N 17000 48200 15800 48200 4
{
T 15400 48200 5 10 1 1 0 0 1
netname=acc
}
C 13300 47600 1 0 0 gnd-1.sym
N 14000 48600 13400 48600 4
N 13400 47900 13400 48600 4
C 21500 48600 1 270 1 pnp-1.sym
{
T 22000 49200 5 10 0 0 90 2 1
device=PNP_TRANSISTOR
T 22000 49200 5 10 1 1 90 2 1
refdes=Q5
T 21500 48600 5 10 0 0 90 8 1
value=2SA1115F
}
C 19800 47900 1 0 0 resistor-2.sym
{
T 20200 48250 5 10 0 0 0 0 1
device=RESISTOR
T 20000 48200 5 10 1 1 0 0 1
refdes=R39
T 20000 47700 5 10 1 1 0 0 1
value=1MEG
}
C 22100 46700 1 90 0 resistor-2.sym
{
T 21750 47100 5 10 0 0 90 0 1
device=RESISTOR
T 21800 46900 5 10 1 1 90 0 1
refdes=R34
T 22100 46900 5 10 1 1 0 0 1
value=100k
}
C 22200 46300 1 90 1 diode-1.sym
{
T 21600 45900 5 10 0 0 90 6 1
device=DIODE
T 21700 46000 5 10 1 1 90 6 1
refdes=D5
T 22200 46300 5 10 0 0 90 0 1
value=1SS133
}
C 20900 43800 1 270 1 pnp-1.sym
{
T 21400 44400 5 10 0 0 90 2 1
device=PNP_TRANSISTOR
T 21400 44400 5 10 1 1 90 2 1
refdes=Q4
T 20900 43800 5 10 0 0 90 8 1
value=2SA1115F
}
C 19600 43300 1 0 0 resistor-2.sym
{
T 20000 43650 5 10 0 0 0 0 1
device=RESISTOR
T 19800 43600 5 10 1 1 0 0 1
refdes=R33
T 19800 43100 5 10 1 1 0 0 1
value=1MEG
}
C 21500 42200 1 90 0 resistor-2.sym
{
T 21150 42600 5 10 0 0 90 0 1
device=RESISTOR
T 21200 42400 5 10 1 1 90 0 1
refdes=R32
T 21500 42400 5 10 1 1 0 0 1
value=47k
}
C 21900 40900 1 0 1 npn-1.sym
{
T 21300 41400 5 10 0 0 0 6 1
device=NPN_TRANSISTOR
T 21300 41400 5 10 1 1 0 6 1
refdes=Q3
T 20800 42200 5 10 0 1 270 2 1
value=2SC2603F
}
C 23100 40200 1 90 0 resistor-2.sym
{
T 22750 40600 5 10 0 0 90 0 1
device=RESISTOR
T 22800 40400 5 10 1 1 90 0 1
refdes=R17
T 23100 40400 5 10 1 1 0 0 1
value=470k
}
C 23800 41300 1 0 0 resistor-2.sym
{
T 24200 41650 5 10 0 0 0 0 1
device=RESISTOR
T 24000 41600 5 10 1 1 0 0 1
refdes=R18
T 24000 41100 5 10 1 1 0 0 1
value=470k
}
C 21300 39600 1 0 0 gnd-1.sym
N 21400 39900 21400 40900 4
C 22900 39600 1 0 0 gnd-1.sym
N 23000 39900 23000 40200 4
N 23000 41100 23000 41400 4
N 21400 41900 21400 42200 4
N 21400 43800 21400 43100 4
N 21400 43400 20500 43400 4
N 19000 43400 19600 43400 4
N 19000 44300 20900 44300 4
N 22000 48600 22000 47600 4
N 22000 46700 22000 46300 4
N 20700 48000 22000 48000 4
N 21500 49100 19000 49100 4
{
T 19100 49200 5 10 1 1 0 0 1
netname=accent
}
N 24500 45000 24500 55200 4
N 24500 45000 22000 45000 4
N 22000 45000 22000 45400 4
C 26100 41700 1 90 0 resistor-2.sym
{
T 25750 42100 5 10 0 0 90 0 1
device=RESISTOR
T 25800 41900 5 10 1 1 90 0 1
refdes=R20
T 26100 41900 5 10 1 1 0 0 1
value=6.8k
}
C 26200 40200 1 90 0 capacitor-1.sym
{
T 25500 40400 5 10 0 0 90 0 1
device=CAPACITOR
T 25700 40500 5 10 1 1 90 0 1
refdes=C7
T 25300 40400 5 10 0 0 90 0 1
symversion=0.1
T 26400 40400 5 10 1 1 90 0 1
value=0.033u
}
C 25900 39600 1 0 0 gnd-1.sym
N 26000 39900 26000 40200 4
N 26000 41100 26000 41700 4
N 26000 41400 24700 41400 4
C 26200 43700 1 90 1 diode-1.sym
{
T 25600 43300 5 10 0 0 90 6 1
device=DIODE
T 25700 43400 5 10 1 1 90 6 1
refdes=D6
T 26200 43700 5 10 0 0 90 0 1
value=1SS133
}
N 25000 45000 25000 54500 4
N 26000 45000 26000 43700 4
N 26000 42800 26000 42600 4
C 28500 44900 1 0 0 resistor-2.sym
{
T 28900 45250 5 10 0 0 0 0 1
device=RESISTOR
T 28700 45200 5 10 1 1 0 0 1
refdes=R5
T 28700 44700 5 10 1 1 0 0 1
value=100k
}
N 21900 44300 27000 44300 4
N 27000 44300 27000 40500 4
N 27000 40500 45000 40500 4
N 25000 45000 28500 45000 4
C 30100 45900 1 90 0 resistor-2.sym
{
T 29750 46300 5 10 0 0 90 0 1
device=RESISTOR
T 29800 46100 5 10 1 1 90 0 1
refdes=R6
T 30100 46100 5 10 1 1 0 0 1
value=22k
}
N 30000 46800 30000 47500 4
C 29800 47500 1 0 0 vcc-1.sym
N 22500 49100 28000 49100 4
C 31000 45500 1 180 1 pnp-1.sym
{
T 31600 45000 5 10 0 0 0 2 1
device=PNP_TRANSISTOR
T 31600 45000 5 10 1 1 0 2 1
refdes=Q8
T 31000 45500 5 10 0 0 0 8 1
value=2SA1115F
}
N 31500 45500 31500 47500 4
C 31300 47500 1 0 0 vcc-1.sym
N 29400 45000 31000 45000 4
N 30000 45000 30000 45900 4
C 31600 42700 1 90 0 resistor-2.sym
{
T 31250 43100 5 10 0 0 90 0 1
device=RESISTOR
T 31300 42900 5 10 1 1 90 0 1
refdes=R14
T 31600 42900 5 10 1 1 0 0 1
value=22k
}
C 30200 42700 1 90 0 capacitor-1.sym
{
T 29500 42900 5 10 0 0 90 0 1
device=CAPACITOR
T 29700 43000 5 10 1 1 90 0 1
refdes=C5
T 29300 42900 5 10 0 0 90 0 1
symversion=0.1
T 30400 42900 5 10 1 1 90 0 1
value=0.0068u
}
C 29900 42100 1 0 0 gnd-1.sym
N 30000 42400 30000 42700 4
C 31400 42100 1 0 0 gnd-1.sym
N 31500 42400 31500 42700 4
N 31500 43600 31500 44500 4
N 31500 44000 30000 44000 4
N 30000 44000 30000 43600 4
C 32100 43800 1 0 0 capacitor-1.sym
{
T 32300 44500 5 10 0 0 0 0 1
device=CAPACITOR
T 32400 44300 5 10 1 1 0 0 1
refdes=C2
T 32300 44700 5 10 0 0 0 0 1
symversion=0.1
T 32200 43600 5 10 1 1 0 0 1
value=0.0033u
}
C 33700 43900 1 0 0 resistor-2.sym
{
T 34100 44250 5 10 0 0 0 0 1
device=RESISTOR
T 33900 44200 5 10 1 1 0 0 1
refdes=R7
T 33900 43700 5 10 1 1 0 0 1
value=100k
}
C 35100 42700 1 90 0 resistor-2.sym
{
T 34750 43100 5 10 0 0 90 0 1
device=RESISTOR
T 34800 42900 5 10 1 1 90 0 1
refdes=R15
T 35100 42900 5 10 1 1 0 0 1
value=100k
}
C 34900 42100 1 0 0 gnd-1.sym
N 35000 42400 35000 42700 4
N 32100 44000 31500 44000 4
N 33000 44000 33700 44000 4
N 35000 44000 35000 43600 4
C 37800 45000 1 90 0 capacitor-1.sym
{
T 37100 45200 5 10 0 0 90 0 1
device=CAPACITOR
T 37300 45300 5 10 1 1 90 0 1
refdes=C4
T 36900 45200 5 10 0 0 90 0 1
symversion=0.1
T 38000 45200 5 10 1 1 90 0 1
value=100p
}
C 37500 44400 1 0 0 gnd-1.sym
N 37600 44700 37600 45000 4
C 35900 43800 1 0 0 capacitor-1.sym
{
T 36100 44500 5 10 0 0 0 0 1
device=CAPACITOR
T 36200 44300 5 10 1 1 0 0 1
refdes=C3
T 36100 44700 5 10 0 0 0 0 1
symversion=0.1
T 36000 43600 5 10 1 1 0 0 1
value=0.0047u
}
C 35900 45900 1 0 0 resistor-2.sym
{
T 36300 46250 5 10 0 0 0 0 1
device=RESISTOR
T 36100 46200 5 10 1 1 0 0 1
refdes=R16
T 36100 45700 5 10 1 1 0 0 1
value=39k
}
N 35900 46000 35500 46000 4
N 35500 46000 35500 44000 4
N 34600 44000 35900 44000 4
N 37600 45900 37600 46000 4
N 39000 46500 39000 47500 4
C 38800 47500 1 0 0 vcc-1.sym
C 39100 42700 1 90 0 resistor-2.sym
{
T 38750 43100 5 10 0 0 90 0 1
device=RESISTOR
T 38800 42900 5 10 1 1 90 0 1
refdes=R8
T 39100 42900 5 10 1 1 0 0 1
value=10k
}
N 39000 42400 39000 42700 4
N 36800 46000 38500 46000 4
N 39000 43600 39000 45500 4
N 39000 44000 36800 44000 4
C 40800 44200 1 180 0 capacitor-2.sym
{
T 40600 43500 5 10 0 0 180 0 1
device=POLARIZED_CAPACITOR
T 40200 44300 5 10 1 1 0 0 1
refdes=C11
T 40600 43300 5 10 0 0 180 0 1
symversion=0.1
T 40100 43600 5 10 1 1 0 0 1
value=0.47u
}
C 41600 42700 1 90 0 resistor-2.sym
{
T 41250 43100 5 10 0 0 90 0 1
device=RESISTOR
T 41300 42900 5 10 1 1 90 0 1
refdes=R44
T 41600 42900 5 10 1 1 0 0 1
value=22k
}
N 39900 44000 39000 44000 4
N 40800 44000 41500 44000 4
{
T 41300 44100 5 10 1 1 0 0 1
netname=pulse
}
N 41500 44000 41500 43600 4
N 23800 41400 21900 41400 4
C 38500 45500 1 0 0 npn-1.sym
{
T 39100 46000 5 10 0 0 0 0 1
device=NPN_TRANSISTOR
T 39100 46000 5 10 1 1 0 0 1
refdes=Q9
T 39600 46800 5 10 0 1 270 0 1
value=2SC2603F
}
C 46600 44400 1 90 0 resistor-2.sym
{
T 46250 44800 5 10 0 0 90 0 1
device=RESISTOR
T 46300 44600 5 10 1 1 90 0 1
refdes=R36
T 46600 44600 5 10 1 1 0 0 1
value=47k
}
C 46600 42900 1 90 0 resistor-2.sym
{
T 46250 43300 5 10 0 0 90 0 1
device=RESISTOR
T 46300 43100 5 10 1 1 90 0 1
refdes=R22
T 46600 43100 5 10 1 1 0 0 1
value=10k
}
C 46400 42100 1 0 0 gnd-1.sym
N 46500 42400 46500 42900 4
N 46500 45300 46500 45800 4
C 46300 45800 1 0 0 vcc-1.sym
N 46500 43800 46500 44400 4
C 46800 46900 1 0 0 resistor-2.sym
{
T 47200 47250 5 10 0 0 0 0 1
device=RESISTOR
T 47000 47200 5 10 1 1 0 0 1
refdes=R35
T 47000 46700 5 10 1 1 0 0 1
value=1.8k
}
C 48700 46400 1 90 1 diode-1.sym
{
T 48100 46000 5 10 0 0 90 6 1
device=DIODE
T 48200 46100 5 10 1 1 90 6 1
refdes=D8
T 48700 46400 5 10 0 0 90 0 1
value=1SS133
}
C 49300 47200 1 180 1 diode-1.sym
{
T 49700 46600 5 10 0 0 180 6 1
device=DIODE
T 49600 46700 5 10 1 1 180 6 1
refdes=D9
T 49300 47200 5 10 0 0 180 0 1
value=1SS133
}
C 50600 44500 1 90 0 resistor-2.sym
{
T 50250 44900 5 10 0 0 90 0 1
device=RESISTOR
T 50300 44700 5 10 1 1 90 0 1
refdes=RVR5
T 50600 44700 5 10 1 1 0 0 1
value=1MEG
}
C 50600 43000 1 90 0 resistor-2.sym
{
T 50250 43400 5 10 0 0 90 0 1
device=RESISTOR
T 50300 43200 5 10 1 1 90 0 1
refdes=R58
T 50600 43200 5 10 1 1 0 0 1
value=47k
}
C 50400 42200 1 0 0 gnd-1.sym
N 50500 42500 50500 43000 4
N 50500 43900 50500 44500 4
N 46800 47000 45000 47000 4
N 45000 40500 45000 47000 4
N 47700 47000 49300 47000 4
N 48500 47000 48500 46400 4
N 48500 45500 48500 44000 4
N 48500 44000 46500 44000 4
N 50200 47000 50500 47000 4
N 50500 47000 50500 45400 4
C 57100 54800 1 90 0 resistor-2.sym
{
T 56750 55200 5 10 0 0 90 0 1
device=RESISTOR
T 56800 55000 5 10 1 1 90 0 1
refdes=R53
T 57100 55000 5 10 1 1 0 0 1
value=2.2k
}
C 57100 52700 1 90 0 resistor-2.sym
{
T 56750 53100 5 10 0 0 90 0 1
device=RESISTOR
T 56800 52900 5 10 1 1 90 0 1
refdes=R43
T 57100 52900 5 10 1 1 0 0 1
value=47
}
C 56900 51900 1 0 0 gnd-1.sym
N 57000 52200 57000 52700 4
N 57000 53600 57000 54800 4
N 53700 56500 57000 56500 4
{
T 54800 56600 5 10 1 1 0 0 1
netname=shaper
}
N 57000 56500 57000 55700 4
C 53300 44100 1 270 0 capacitor-2.sym
{
T 54000 43900 5 10 0 0 270 0 1
device=POLARIZED_CAPACITOR
T 53000 43700 5 10 1 1 0 0 1
refdes=C8
T 54200 43900 5 10 0 0 270 0 1
symversion=0.1
T 52900 43400 5 10 1 1 0 0 1
value=0.33u
}
N 53500 45900 53500 44100 4
C 53400 42200 1 0 0 gnd-1.sym
N 53500 42500 53500 43200 4
C 53600 45900 1 90 0 resistor-2.sym
{
T 53250 46300 5 10 0 0 90 0 1
device=RESISTOR
T 53300 46100 5 10 1 1 90 0 1
refdes=R54
T 53600 46100 5 10 1 1 0 0 1
value=470k
}
N 53500 45600 50500 45600 4
{
T 52800 45300 5 10 1 1 0 0 1
netname=env1
}
C 59000 53500 1 90 0 npn-1.sym
{
T 58500 54100 5 10 0 0 90 0 1
device=NPN_TRANSISTOR
T 58700 54300 5 10 1 1 180 0 1
refdes=Q12
T 57700 54600 5 10 0 1 0 0 1
value=2SC2603F
}
N 58000 54000 57000 54000 4
N 58500 53500 58500 47000 4
N 58500 47000 53500 47000 4
N 53500 47000 53500 46800 4
C 62300 55300 1 0 0 resistor-2.sym
{
T 62700 55650 5 10 0 0 0 0 1
device=RESISTOR
T 62500 55600 5 10 1 1 0 0 1
refdes=RVR4
T 62500 55100 5 10 1 1 0 0 1
value=100k
}
N 62300 55400 60000 55400 4
N 60000 55400 60000 54000 4
N 64000 55400 63200 55400 4
N 64000 53800 64000 55400 4
{
T 64100 53900 5 10 1 1 0 0 1
netname=output
}
N 64000 53800 63000 53800 4
C 61100 52000 1 0 0 gnd-1.sym
N 62000 53600 61200 53600 4
N 61200 52300 61200 53600 4
N 62000 54000 59000 54000 4
C 33300 36900 1 0 0 resistor-2.sym
{
T 33700 37250 5 10 0 0 0 0 1
device=RESISTOR
T 33500 37200 5 10 1 1 0 0 1
refdes=R10
T 33500 36700 5 10 1 1 0 0 1
value=12k
}
C 35100 35700 1 90 0 resistor-2.sym
{
T 34750 36100 5 10 0 0 90 0 1
device=RESISTOR
T 34800 35900 5 10 1 1 90 0 1
refdes=R9
T 35100 35900 5 10 1 1 0 0 1
value=4.7k
}
C 34900 35100 1 0 0 gnd-1.sym
N 35000 35400 35000 35700 4
N 35000 37000 35000 36600 4
N 34200 37000 35800 37000 4
C 35800 36800 1 0 0 capacitor-2.sym
{
T 36000 37500 5 10 0 0 0 0 1
device=POLARIZED_CAPACITOR
T 36400 37400 5 10 1 1 180 0 1
refdes=C15
T 36000 37700 5 10 0 0 0 0 1
symversion=0.1
T 36600 36700 5 10 1 1 180 0 1
value=0.47u
}
C 37300 36900 1 0 0 resistor-2.sym
{
T 37700 37250 5 10 0 0 0 0 1
device=RESISTOR
T 37500 37200 5 10 1 1 0 0 1
refdes=R46
T 37500 36700 5 10 1 1 0 0 1
value=4.7k
}
C 39200 35700 1 90 0 capacitor-1.sym
{
T 38500 35900 5 10 0 0 90 0 1
device=CAPACITOR
T 38700 36000 5 10 1 1 90 0 1
refdes=C13
T 38300 35900 5 10 0 0 90 0 1
symversion=0.1
T 39400 35900 5 10 1 1 90 0 1
value=0.1u
}
C 38900 35100 1 0 0 gnd-1.sym
N 39000 35400 39000 35700 4
N 39000 37000 39000 36600 4
N 36700 37000 37300 37000 4
C 39900 36900 1 0 0 resistor-2.sym
{
T 40300 37250 5 10 0 0 0 0 1
device=RESISTOR
T 40100 37200 5 10 1 1 0 0 1
refdes=R45
T 40100 36700 5 10 1 1 0 0 1
value=4.7k
}
N 38200 37000 39900 37000 4
{
T 39300 37100 5 10 1 1 0 0 1
netname=noise
}
N 41500 36600 41500 42700 4
N 40800 37000 41500 37000 4
C 41600 35700 1 90 0 resistor-2.sym
{
T 41250 36100 5 10 0 0 90 0 1
device=RESISTOR
T 41300 35900 5 10 1 1 90 0 1
refdes=R56
T 41600 35900 5 10 1 1 0 0 1
value=330
}
C 41400 35100 1 0 0 gnd-1.sym
N 41500 35400 41500 35700 4
N 33300 37000 31500 37000 4
{
T 30500 37000 5 10 1 1 0 0 1
netname=whitenoise
}
C 47500 36500 1 90 0 npn-1.sym
{
T 47000 37100 5 10 0 0 90 0 1
device=NPN_TRANSISTOR
T 47100 37200 5 10 1 1 180 0 1
refdes=Q6
T 46200 37600 5 10 0 1 0 0 1
value=2SC2603F
}
N 47000 34700 47000 33600 4
C 46900 31900 1 0 0 gnd-1.sym
N 47000 32200 47000 32700 4
C 47100 34700 1 90 0 resistor-2.sym
{
T 46750 35100 5 10 0 0 90 0 1
device=RESISTOR
T 46800 34900 5 10 1 1 90 0 1
refdes=R42
T 47100 34900 5 10 1 1 0 0 1
value=470k
}
N 47000 36500 47000 35600 4
C 45300 33900 1 0 0 resistor-2.sym
{
T 45700 34250 5 10 0 0 0 0 1
device=RESISTOR
T 45500 34200 5 10 1 1 0 0 1
refdes=R41
T 45500 33700 5 10 1 1 0 0 1
value=22k
}
C 48200 35900 1 0 0 resistor-2.sym
{
T 48600 36250 5 10 0 0 0 0 1
device=RESISTOR
T 48400 36200 5 10 1 1 0 0 1
refdes=R495
T 48400 35700 5 10 1 1 0 0 1
value=150k
}
C 49900 35000 1 0 0 gnd-1.sym
N 50000 35300 50000 36000 4
C 47200 32700 1 90 0 capacitor-1.sym
{
T 46500 32900 5 10 0 0 90 0 1
device=CAPACITOR
T 46700 33000 5 10 1 1 90 0 1
refdes=C12
T 46300 32900 5 10 0 0 90 0 1
symversion=0.1
T 47400 32900 5 10 1 1 90 0 1
value=0.033u
}
N 50000 36000 49100 36000 4
N 48200 36000 47000 36000 4
N 46200 34000 47000 34000 4
{
T 47100 34100 5 10 1 1 0 0 1
netname=env2
}
N 28000 34000 28000 49100 4
N 28000 34000 45300 34000 4
N 47500 37000 60000 37000 4
N 60000 37000 60000 54000 4
C 42800 36900 1 0 0 resistor-2.sym
{
T 43200 37250 5 10 0 0 0 0 1
device=RESISTOR
T 43000 37200 5 10 1 1 0 0 1
refdes=RVR3
T 43000 36700 5 10 1 1 0 0 1
value=500
}
C 44500 35700 1 90 0 resistor-2.sym
{
T 44150 36100 5 10 0 0 90 0 1
device=RESISTOR
T 44200 35900 5 10 1 1 90 0 1
refdes=R55
T 44500 35900 5 10 1 1 0 0 1
value=47
}
C 44300 35100 1 0 0 gnd-1.sym
N 44400 35400 44400 35700 4
N 42800 37000 41500 37000 4
N 43700 37000 46500 37000 4
N 44400 37000 44400 36600 4
C 36000 54700 1 180 1 opamp-1.sym
{
T 36200 53650 5 10 0 0 180 6 1
device=OPAMP
T 36700 54550 5 10 1 1 180 6 1
refdes=XIC12a
T 36200 53450 5 10 0 0 180 6 1
symversion=0.1
T 36200 52600 5 10 0 1 180 6 1
value=TL072
}
C 40400 55900 1 180 1 opamp-1.sym
{
T 41200 55750 5 10 1 1 180 6 1
refdes=XIC12b
T 40600 54850 5 10 0 0 180 6 1
device=OPAMP
T 40600 54650 5 10 0 0 180 6 1
symversion=0.1
T 40600 53800 5 10 0 1 180 6 1
value=TL072
}
C 47400 55700 1 180 1 opamp-1.sym
{
T 48200 55550 5 10 1 1 180 6 1
refdes=XIC13a
T 47600 54650 5 10 0 0 180 6 1
device=OPAMP
T 47600 54450 5 10 0 0 180 6 1
symversion=0.1
T 47600 53600 5 10 0 1 180 6 1
value=TL072
}
C 51800 55500 1 180 1 opamp-1.sym
{
T 52600 55350 5 10 1 1 180 6 1
refdes=XIC13b
T 52000 54450 5 10 0 0 180 6 1
device=OPAMP
T 52000 54250 5 10 0 0 180 6 1
symversion=0.1
T 52000 53400 5 10 0 1 180 6 1
value=TL072
}
N 52800 55100 53600 55100 4
N 53600 53400 53600 55100 4
C 62000 54200 1 180 1 opamp-1.sym
{
T 62800 54050 5 10 1 1 180 6 1
refdes=XIC11a
T 62200 53150 5 10 0 0 180 6 1
device=OPAMP
T 62200 52950 5 10 0 0 180 6 1
symversion=0.1
T 62200 52100 5 10 0 1 180 6 1
value=TL072
}
C 17000 48800 1 180 1 opamp-1.sym
{
T 17800 48650 5 10 1 1 180 6 1
refdes=XIC11b
T 17200 47750 5 10 0 0 180 6 1
device=OPAMP
T 17200 47550 5 10 0 0 180 6 1
symversion=0.1
T 17200 46700 5 10 0 1 180 6 1
value=TL072
}
N 19800 48000 19000 48000 4
C 17300 48000 1 180 1 vcc-1.sym
C 36300 53900 1 180 1 vcc-1.sym
C 40700 55100 1 180 1 vcc-1.sym
C 47700 54900 1 180 1 vcc-1.sym
C 52100 54700 1 180 1 vcc-1.sym
C 62300 53400 1 180 1 vcc-1.sym
C 17300 48800 1 0 0 vee-1.sym
C 36300 54700 1 0 0 vee-1.sym
C 40700 55900 1 0 0 vee-1.sym
C 52100 55500 1 0 0 vee-1.sym
C 47700 55700 1 0 0 vee-1.sym
C 62300 54200 1 0 0 vee-1.sym
C 39200 42400 1 180 0 vee-1.sym
C 35100 52800 1 90 0 resistor-2.sym
{
T 34750 53200 5 10 0 0 90 0 1
device=RESISTOR
T 34800 53000 5 10 1 1 90 0 1
refdes=R25
T 35100 53000 5 10 1 1 0 0 1
value=100k
}
N 35000 54100 35000 53700 4
N 35000 52800 35000 52200 4
