v 20130925 2
N 33600 54100 33600 56700 4
C 27800 56300 1 0 0 resistor-2.sym
{
T 28200 56650 5 10 0 0 0 0 1
device=RESISTOR
T 28000 56600 5 10 1 1 0 0 1
refdes=RA11_1
T 28000 56100 5 10 1 1 0 0 1
value=5k
}
C 27800 55500 1 0 0 resistor-2.sym
{
T 28200 55850 5 10 0 0 0 0 1
device=RESISTOR
T 28000 55800 5 10 1 1 0 0 1
refdes=RA11_2
T 28000 55300 5 10 1 1 0 0 1
value=10k
}
C 27800 54700 1 0 0 resistor-2.sym
{
T 28200 55050 5 10 0 0 0 0 1
device=RESISTOR
T 28000 55000 5 10 1 1 0 0 1
refdes=RA11_3
T 28000 54500 5 10 1 1 0 0 1
value=20k
}
C 27800 53900 1 0 0 resistor-2.sym
{
T 28200 54250 5 10 0 0 0 0 1
device=RESISTOR
T 28000 54200 5 10 1 1 0 0 1
refdes=RA11_4
T 28000 53700 5 10 1 1 0 0 1
value=40k
}
C 27800 53100 1 0 0 resistor-2.sym
{
T 28200 53450 5 10 0 0 0 0 1
device=RESISTOR
T 28000 53400 5 10 1 1 0 0 1
refdes=RA11_5
T 28000 52900 5 10 1 1 0 0 1
value=80k
}
C 27800 52300 1 0 0 resistor-2.sym
{
T 28200 52650 5 10 0 0 0 0 1
device=RESISTOR
T 28000 52600 5 10 1 1 0 0 1
refdes=RA11_6
T 28000 52100 5 10 1 1 0 0 1
value=160k
}
N 27800 56400 27300 56400 4
{
T 27100 56500 5 10 1 1 0 0 1
netname=addr15
}
N 27800 55600 27300 55600 4
{
T 27100 55700 5 10 1 1 0 0 1
netname=addr14
}
N 27800 54800 27300 54800 4
{
T 27100 54900 5 10 1 1 0 0 1
netname=addr13
}
N 27800 54000 27300 54000 4
{
T 27100 54100 5 10 1 1 0 0 1
netname=addr12
}
N 27800 53200 27300 53200 4
{
T 27100 53300 5 10 1 1 0 0 1
netname=addr11
}
N 27800 52400 27300 52400 4
{
T 27100 52500 5 10 1 1 0 0 1
netname=addr10
}
C 29600 54500 1 0 0 resistor-2.sym
{
T 30000 54850 5 10 0 0 0 0 1
device=RESISTOR
T 29800 54800 5 10 1 1 0 0 1
refdes=R432
T 29800 54300 5 10 1 1 0 0 1
value=270k
}
C 31900 56500 1 0 0 capacitor-1.sym
{
T 32100 57200 5 10 0 0 0 0 1
device=CAPACITOR
T 32100 57400 5 10 0 0 0 0 1
symversion=0.1
T 32100 56300 5 10 1 1 0 0 1
value=1000p
T 32100 57000 5 10 1 1 0 0 1
refdes=C126
}
N 28700 56400 29100 56400 4
N 29100 52400 29100 56400 4
N 29100 52400 28700 52400 4
N 28700 53200 29100 53200 4
N 28700 54000 29100 54000 4
N 28700 54800 29100 54800 4
N 28700 55600 29100 55600 4
N 29600 54600 29100 54600 4
{
T 29200 55300 5 10 1 1 0 0 1
netname=staircase
}
N 31900 55000 31600 55000 4
N 31900 56700 30900 56700 4
N 30900 54600 30500 54600 4
N 31900 54600 30900 54600 4
N 32800 56700 33600 56700 4
N 32900 54800 33600 54800 4
C 34500 52000 1 180 0 pnp-1.sym
{
T 33900 51500 5 10 0 0 180 0 1
device=PNP_TRANSISTOR
T 33900 51300 5 10 1 1 180 0 1
refdes=Q70b
T 34500 52000 5 10 0 0 0 0 1
value=2SA1115F
}
C 32700 52000 1 180 1 pnp-1.sym
{
T 33300 51500 5 10 0 0 180 6 1
device=PNP_TRANSISTOR
T 33300 51800 5 10 1 1 180 6 1
refdes=Q70a
T 32700 52000 5 10 0 0 0 0 1
value=2SA1115F
}
N 34000 52000 34000 52300 4
N 34000 52300 33200 52300 4
N 33200 52300 33200 52000 4
C 33700 53200 1 90 0 resistor-2.sym
{
T 33350 53600 5 10 0 0 90 0 1
device=RESISTOR
T 33400 53400 5 10 1 1 90 0 1
refdes=R430
T 33700 53400 5 10 1 1 0 0 1
value=2.2k
}
N 33600 53200 33600 52300 4
C 35600 52300 1 90 0 resistor-2.sym
{
T 35250 52700 5 10 0 0 90 0 1
device=RESISTOR
T 35300 52500 5 10 1 1 90 0 1
refdes=R429
T 35600 52500 5 10 1 1 0 0 1
value=100
}
C 31400 55000 1 0 0 5V-plus-1.sym
C 35300 53400 1 0 0 5V-plus-1.sym
N 35500 53400 35500 53200 4
N 35500 52300 35500 51500 4
N 35500 51500 34500 51500 4
N 30900 50600 30900 56700 4
N 30900 50600 33200 50600 4
N 33200 50600 33200 51000 4
N 34000 51000 34000 49400 4
{
T 34100 49900 5 10 1 1 0 0 1
netname=envelope
}
N 32700 51500 24200 51500 4
C 23300 51400 1 0 0 resistor-2.sym
{
T 23700 51750 5 10 0 0 0 0 1
device=RESISTOR
T 23500 51700 5 10 1 1 0 0 1
refdes=R427
T 23500 51200 5 10 1 1 0 0 1
value=2.2k
}
C 25600 50200 1 90 0 resistor-2.sym
{
T 25250 50600 5 10 0 0 90 0 1
device=RESISTOR
T 25300 50400 5 10 1 1 90 0 1
refdes=R426
T 25600 50400 5 10 1 1 0 0 1
value=4.7k
}
C 25300 53100 1 0 0 5V-plus-1.sym
N 25500 53100 25500 52800 4
N 25500 51500 25500 51100 4
C 25600 51900 1 90 0 resistor-2.sym
{
T 25250 52300 5 10 0 0 90 0 1
device=RESISTOR
T 25300 52100 5 10 1 1 90 0 1
refdes=R428
T 25600 52100 5 10 1 1 0 0 1
value=220
}
N 25500 51900 25500 51500 4
N 25500 50200 25500 49800 4
N 24900 49800 25500 49800 4
{
T 24700 49900 5 10 1 1 0 0 1
netname=acc
}
N 23300 51500 21900 51500 4
{
T 21600 51600 5 10 1 1 0 0 1
netname=addr16inv
}
C 35400 48800 1 0 0 resistor-2.sym
{
T 35800 49150 5 10 0 0 0 0 1
device=RESISTOR
T 35600 49100 5 10 1 1 0 0 1
refdes=R425
T 35600 48600 5 10 1 1 0 0 1
value=47k
}
N 35400 48900 34500 48900 4
N 36300 48900 37200 48900 4
N 37200 48900 37200 47700 4
{
T 37300 48600 5 10 1 1 0 0 1
netname=output
}
N 37200 47700 36400 47700 4
N 35400 47900 35000 47900 4
N 35000 47900 35000 48900 4
N 35400 47500 35000 47500 4
N 35000 47500 35000 47200 4
C 34900 46900 1 0 0 gnd-1.sym
N 33500 48900 30800 48900 4
{
T 30700 49000 5 10 1 1 0 0 1
netname=+5v
}
C 34500 49400 1 90 1 npn-1.sym
{
T 34000 48800 5 10 0 0 270 2 1
device=NPN_TRANSISTOR
T 34000 48800 5 10 1 1 270 2 1
refdes=Q71
T 34500 49400 5 10 0 0 0 0 1
value=2SC2603F
}
C 31900 54400 1 0 0 opamp-1.sym
{
T 32600 55200 5 10 0 0 0 0 1
device=OPAMP
T 32600 55000 5 10 1 1 0 0 1
refdes=XIC52b
T 32600 55800 5 10 0 0 0 0 1
symversion=0.1
T 31900 54400 5 10 0 0 0 0 1
value=TL072
}
C 35400 47300 1 0 0 opamp-1.sym
{
T 36100 48100 5 10 0 0 0 0 1
device=OPAMP
T 36100 47900 5 10 1 1 0 0 1
refdes=XIC51b
T 36100 48700 5 10 0 0 0 0 1
symversion=0.1
T 35400 47300 5 10 0 0 0 0 1
value=TL072
}
C 32200 55200 1 0 0 vcc-1.sym
C 35700 48100 1 0 0 vcc-1.sym
C 32600 54400 1 180 0 vee-1.sym
C 36100 47300 1 180 0 vee-1.sym
