v 20130925 2
N 16300 44500 15200 44500 4
{
T 14800 44400 5 10 1 1 0 0 1
netname=trig
}
C 14100 49900 1 0 0 resistor-2.sym
{
T 14500 50250 5 10 0 0 0 0 1
device=RESISTOR
T 14300 50200 5 10 1 1 0 0 1
refdes=R206
T 14300 49700 5 10 1 1 0 0 1
value=4.7k
}
C 17300 49900 1 0 0 resistor-2.sym
{
T 17700 50250 5 10 0 0 0 0 1
device=RESISTOR
T 17500 50200 5 10 1 1 0 0 1
refdes=R212
T 17500 49700 5 10 1 1 0 0 1
value=10k
}
N 15000 50000 17300 50000 4
N 18000 48600 19000 48600 4
N 17000 48400 16500 48400 4
{
T 16200 48400 5 10 1 1 0 0 1
netname=acc
}
C 13400 47900 1 0 0 gnd-1.sym
N 14100 50000 13500 50000 4
N 13500 48200 13500 50000 4
C 20000 47500 1 180 1 pnp-1.sym
{
T 20600 47000 5 10 0 0 0 2 1
device=PNP_TRANSISTOR
T 20600 47000 5 10 1 1 0 2 1
refdes=Q36
T 20000 47500 5 10 0 0 0 8 1
value=2SA1115F
}
C 28700 43000 1 90 0 capacitor-1.sym
{
T 28000 43200 5 10 0 0 90 0 1
device=CAPACITOR
T 28900 43700 5 10 1 1 180 0 1
refdes=C62
T 27800 43200 5 10 0 0 90 0 1
symversion=0.1
T 29100 43300 5 10 1 1 180 0 1
value=0.027u
}
C 28400 42400 1 0 0 gnd-1.sym
N 28500 42700 28500 43000 4
N 26500 44300 28500 44300 4
N 28500 44300 28500 43900 4
C 15600 48600 1 90 0 resistor-2.sym
{
T 15250 49000 5 10 0 0 90 0 1
device=RESISTOR
T 15300 48800 5 10 1 1 90 0 1
refdes=R496
T 15600 48800 5 10 1 1 0 0 1
value=100k
}
N 15500 49500 15500 50000 4
N 15500 48200 15500 48600 4
N 17000 48800 16500 48800 4
N 16500 48800 16500 50000 4
C 19100 47300 1 90 0 resistor-2.sym
{
T 18750 47700 5 10 0 0 90 0 1
device=RESISTOR
T 18800 47500 5 10 1 1 90 0 1
refdes=R211
T 19100 47500 5 10 1 1 0 0 1
value=10k
}
C 19100 45600 1 90 0 resistor-2.sym
{
T 18750 46000 5 10 0 0 90 0 1
device=RESISTOR
T 18800 45800 5 10 1 1 90 0 1
refdes=R210
T 19100 45800 5 10 1 1 0 0 1
value=22k
}
C 16300 44400 1 0 0 resistor-2.sym
{
T 16700 44750 5 10 0 0 0 0 1
device=RESISTOR
T 16500 44700 5 10 1 1 0 0 1
refdes=R215
T 16500 44200 5 10 1 1 0 0 1
value=22k
}
C 18100 43200 1 90 0 resistor-2.sym
{
T 17750 43600 5 10 0 0 90 0 1
device=RESISTOR
T 17800 43400 5 10 1 1 90 0 1
refdes=R216
T 18100 43400 5 10 1 1 0 0 1
value=10k
}
C 18500 44000 1 0 0 npn-1.sym
{
T 19100 44500 5 10 0 0 0 0 1
device=NPN_TRANSISTOR
T 19100 44500 5 10 1 1 0 0 1
refdes=Q35
T 19600 45300 5 10 0 1 270 0 1
value=2SC2603F
}
C 18900 42400 1 0 0 gnd-1.sym
N 19000 44000 19000 42700 4
C 17900 42400 1 0 0 gnd-1.sym
N 18000 43200 18000 42700 4
N 19000 48200 19000 50000 4
N 19000 47300 19000 46500 4
N 19000 45000 19000 45600 4
N 18500 44500 17200 44500 4
N 18000 44500 18000 44100 4
N 20000 47000 19000 47000 4
N 20500 47500 20500 48600 4
N 20500 48600 19000 48600 4
C 20600 44900 1 90 0 resistor-2.sym
{
T 20250 45300 5 10 0 0 90 0 1
device=RESISTOR
T 21100 45600 5 10 1 1 180 0 1
refdes=R213
T 20600 45100 5 10 1 1 0 0 1
value=22k
}
C 20600 43200 1 90 0 resistor-2.sym
{
T 20250 43600 5 10 0 0 90 0 1
device=RESISTOR
T 21100 43900 5 10 1 1 180 0 1
refdes=R218
T 20600 43400 5 10 1 1 0 0 1
value=22k
}
N 20500 42700 20500 43200 4
N 20500 46500 20500 45800 4
N 20500 44900 20500 44100 4
C 24100 48400 1 90 0 resistor-2.sym
{
T 23750 48800 5 10 0 0 90 0 1
device=RESISTOR
T 24600 49000 5 10 1 1 180 0 1
refdes=R219
T 24200 48600 5 10 1 1 0 0 1
value=4.7k
}
C 24100 45200 1 90 0 resistor-2.sym
{
T 23750 45600 5 10 0 0 90 0 1
device=RESISTOR
T 24600 45800 5 10 1 1 180 0 1
refdes=R217
T 24200 45400 5 10 1 1 0 0 1
value=4.7k
}
C 24100 42900 1 90 0 resistor-2.sym
{
T 23750 43300 5 10 0 0 90 0 1
device=RESISTOR
T 24600 43500 5 10 1 1 180 0 1
refdes=R214
T 24200 43100 5 10 1 1 0 0 1
value=4.7k
}
N 24000 42700 24000 42900 4
C 22900 47900 1 0 0 gnd-1.sym
N 23000 48200 23000 49500 4
N 24000 49300 24000 49500 4
N 23000 49500 24000 49500 4
N 24000 45200 24000 43800 4
N 25500 44500 20500 44500 4
N 25500 44100 24000 44100 4
N 27500 45300 27500 44300 4
C 27600 42900 1 90 0 resistor-2.sym
{
T 27250 43300 5 10 0 0 90 0 1
device=RESISTOR
T 27300 43600 5 10 1 1 180 0 1
refdes=R229
T 26800 43200 5 10 1 1 0 0 1
value=1MEG
}
C 27400 42400 1 0 0 gnd-1.sym
N 27500 42900 27500 42700 4
N 27500 43800 27500 44300 4
C 20700 42700 1 180 0 vee-1.sym
C 24200 42700 1 180 0 vee-1.sym
C 15700 48200 1 180 0 vee-1.sym
N 39000 48300 39000 50000 4
N 18200 50000 39000 50000 4
N 20500 46000 20000 46000 4
T 20250 37800 5 10 0 0 90 0 1
device=RESISTOR
N 20000 33000 20000 46000 4
C 25500 44700 1 180 1 opamp-1.sym
{
T 26200 44100 5 10 1 1 180 6 1
refdes=XIC29a
T 26200 43900 5 10 0 0 180 6 1
value=AN6912
T 26200 43300 5 10 0 0 180 6 1
symversion=0.1
}
C 25800 44700 1 0 0 vee-1.sym
C 25900 43600 1 0 0 gnd-1.sym
C 17000 49000 1 180 1 opamp-1.sym
{
T 17700 48200 5 10 0 0 180 6 1
device=OPAMP
T 17700 48400 5 10 1 1 180 6 1
refdes=XIC26a
T 17700 47600 5 10 0 0 180 6 1
symversion=0.1
T 17000 49000 5 10 0 0 0 0 1
value=TL072
}
C 17700 49000 1 0 1 vee-1.sym
C 17300 48200 1 180 1 vcc-1.sym
C 25500 46700 1 180 1 opamp-1.sym
{
T 26200 45900 5 10 0 0 180 6 1
value=AN6912
T 26200 45300 5 10 0 0 180 6 1
symversion=0.1
T 26200 46100 5 10 1 1 180 6 1
refdes=XIC29b
}
C 25800 46700 1 0 0 vee-1.sym
C 25900 45600 1 0 0 gnd-1.sym
C 25500 48600 1 180 1 opamp-1.sym
{
T 26200 47800 5 10 0 0 180 6 1
value=AN6912
T 26200 47200 5 10 0 0 180 6 1
symversion=0.1
T 26200 48000 5 10 1 1 180 6 1
refdes=XIC29c
}
C 25800 48600 1 0 0 vee-1.sym
C 25900 47500 1 0 0 gnd-1.sym
N 25500 46100 25000 46100 4
N 25000 46100 25000 45300 4
N 25000 45300 27500 45300 4
N 25000 47300 27500 47300 4
N 27500 47300 27500 46300 4
N 26500 46300 29100 46300 4
N 25500 48400 25000 48400 4
N 25000 48400 25000 47300 4
N 24000 48400 24000 46100 4
N 25500 48000 24000 48000 4
N 25500 46500 24000 46500 4
C 29000 47200 1 90 0 resistor-2.sym
{
T 28650 47600 5 10 0 0 90 0 1
device=RESISTOR
T 28700 47400 5 10 1 1 90 0 1
refdes=R220
T 29000 47400 5 10 1 1 0 0 1
value=82k
}
C 28800 46900 1 0 0 gnd-1.sym
N 26500 48200 29900 48200 4
C 29100 46200 1 0 0 resistor-2.sym
{
T 29500 46550 5 10 0 0 0 0 1
device=RESISTOR
T 29300 46500 5 10 1 1 0 0 1
refdes=R227
T 29300 46000 5 10 1 1 0 0 1
value=2.7k
}
C 28300 44800 1 0 0 capacitor-1.sym
{
T 28500 45500 5 10 0 0 0 0 1
device=CAPACITOR
T 28800 45100 5 10 1 1 0 0 1
refdes=C64
T 28500 45700 5 10 0 0 0 0 1
symversion=0.1
T 28800 44800 5 10 1 1 0 0 1
value=1n
}
N 28000 45000 28000 46300 4
C 30500 45400 1 90 0 resistor-2.sym
{
T 30150 45800 5 10 0 0 90 0 1
device=RESISTOR
T 30200 45600 5 10 1 1 90 0 1
refdes=R228
T 30500 45600 5 10 1 1 0 0 1
value=5.6k
}
C 30300 45100 1 0 0 gnd-1.sym
N 30000 46300 32100 46300 4
C 31000 44200 1 0 0 resistor-2.sym
{
T 31400 44550 5 10 0 0 0 0 1
device=RESISTOR
T 31200 44500 5 10 1 1 0 0 1
refdes=R226
T 31200 44000 5 10 1 1 0 0 1
value=68k
}
C 32100 46500 1 180 1 opamp-1.sym
{
T 32800 45700 5 10 0 0 180 6 1
value=AN6912
T 32800 45100 5 10 0 0 180 6 1
symversion=0.1
T 32800 45900 5 10 1 1 180 6 1
refdes=XIC29d
}
C 32400 46500 1 0 0 vee-1.sym
C 32500 45400 1 0 0 gnd-1.sym
C 32100 44800 1 0 0 capacitor-1.sym
{
T 32300 45500 5 10 0 0 0 0 1
device=CAPACITOR
T 32100 45100 5 10 1 1 0 0 1
refdes=C63
T 32300 45700 5 10 0 0 0 0 1
symversion=0.1
T 32600 44800 5 10 1 1 0 0 1
value=220p
}
C 31700 47200 1 90 0 resistor-2.sym
{
T 31350 47600 5 10 0 0 90 0 1
device=RESISTOR
T 31400 47400 5 10 1 1 90 0 1
refdes=R225
T 31700 47400 5 10 1 1 0 0 1
value=1MEG
}
N 31600 48100 31600 48200 4
N 30800 48200 34600 48200 4
{
T 33800 48200 5 10 1 1 0 0 1
netname=env1
}
N 31600 47200 31600 45000 4
N 31600 45000 32100 45000 4
N 32100 45900 31600 45900 4
N 33100 46100 33900 46100 4
N 33700 44000 33700 46100 4
N 33000 45000 35500 45000 4
N 33700 44300 31900 44300 4
C 33800 43100 1 90 0 resistor-2.sym
{
T 33450 43500 5 10 0 0 90 0 1
device=RESISTOR
T 33500 43300 5 10 1 1 90 0 1
refdes=R222
T 33800 43300 5 10 1 1 0 0 1
value=10k
}
C 33600 42400 1 0 0 gnd-1.sym
C 33900 46000 1 0 0 resistor-2.sym
{
T 34300 46350 5 10 0 0 0 0 1
device=RESISTOR
T 34100 46300 5 10 1 1 0 0 1
refdes=R221
T 34100 45800 5 10 1 1 0 0 1
value=18k
}
N 34800 46100 35000 46100 4
N 35000 45000 35000 46100 4
C 29900 48000 1 0 0 diode-1.sym
{
T 30300 48600 5 10 0 0 0 0 1
device=DIODE
T 30200 48500 5 10 1 1 0 0 1
refdes=D54
T 29900 48000 5 10 0 0 0 0 1
value=1SS133
}
C 29900 43200 1 90 0 diode-1.sym
{
T 29300 43600 5 10 0 0 90 0 1
device=DIODE
T 30100 43400 5 10 1 1 180 0 1
refdes=D55
T 29900 43200 5 10 0 0 0 0 1
value=1SS133
}
C 29900 42700 1 180 0 vee-1.sym
N 29700 42700 29700 43200 4
N 29700 44100 29700 45000 4
N 33700 42700 33700 43100 4
C 34600 48100 1 0 0 resistor-2.sym
{
T 35000 48450 5 10 0 0 0 0 1
device=RESISTOR
T 34800 48400 5 10 1 1 0 0 1
refdes=R223
T 34800 47900 5 10 1 1 0 0 1
value=330
}
C 33900 47200 1 90 0 capacitor-2.sym
{
T 33200 47400 5 10 0 0 90 0 1
device=POLARIZED_CAPACITOR
T 34400 47600 5 10 1 1 180 0 1
refdes=C65
T 33000 47400 5 10 0 0 90 0 1
symversion=0.1
T 33900 47200 5 10 1 1 0 0 1
value=0.47u
}
C 33600 46900 1 0 0 gnd-1.sym
N 28900 48100 28900 48200 4
N 33700 48200 33700 48100 4
N 31000 44300 29700 44300 4
N 29700 45000 29200 45000 4
C 35500 44500 1 0 0 npn-1.sym
{
T 36100 45000 5 10 0 0 0 0 1
device=NPN_TRANSISTOR
T 36100 45000 5 10 1 1 0 0 1
refdes=Q40
T 36600 45800 5 10 0 1 270 0 1
value=2SC2603F
}
N 36000 45500 36000 48200 4
N 36000 48200 35500 48200 4
C 36200 44200 1 180 0 vee-1.sym
N 36000 44200 36000 44500 4
C 36400 45900 1 0 0 resistor-2.sym
{
T 36800 46250 5 10 0 0 0 0 1
device=RESISTOR
T 36600 46200 5 10 1 1 0 0 1
refdes=R224
T 36600 45700 5 10 1 1 0 0 1
value=470k
}
N 37300 46000 38200 46000 4
C 37600 44700 1 90 0 resistor-2.sym
{
T 37250 45100 5 10 0 0 90 0 1
device=RESISTOR
T 37300 44900 5 10 1 1 90 0 1
refdes=R238
T 37600 44900 5 10 1 1 0 0 1
value=15k
}
C 37400 43900 1 0 0 gnd-1.sym
N 37500 44200 37500 44700 4
N 37500 46000 37500 45600 4
N 36400 46000 36000 46000 4
C 39100 47400 1 90 0 resistor-2.sym
{
T 38750 47800 5 10 0 0 90 0 1
device=RESISTOR
T 38800 47600 5 10 1 1 90 0 1
refdes=R235
T 39100 47600 5 10 1 1 0 0 1
value=15k
}
N 39800 46000 40800 46000 4
C 40600 44700 1 90 0 resistor-2.sym
{
T 40250 45100 5 10 0 0 90 0 1
device=RESISTOR
T 40300 44900 5 10 1 1 90 0 1
refdes=R230
T 40600 44900 5 10 1 1 0 0 1
value=2.2k
}
C 40400 43900 1 0 0 gnd-1.sym
N 40500 44200 40500 44700 4
N 40500 46000 40500 45600 4
C 40800 45900 1 0 0 resistor-2.sym
{
T 41200 46250 5 10 0 0 0 0 1
device=RESISTOR
T 41000 46200 5 10 1 1 0 0 1
refdes=R494
T 41000 45700 5 10 1 1 0 0 1
value=47k
}
C 38200 46500 1 180 1 pnp-1.sym
{
T 38800 46000 5 10 0 0 0 2 1
device=PNP_TRANSISTOR
T 38100 46500 5 10 1 1 0 2 1
refdes=Q38a
T 38200 46500 5 10 0 0 0 8 1
value=2SA1115F
}
C 39800 46500 1 180 0 pnp-1.sym
{
T 39200 46000 5 10 0 0 0 8 1
device=PNP_TRANSISTOR
T 39900 46500 5 10 1 1 0 8 1
refdes=Q38b
T 39800 46500 5 10 0 0 0 2 1
value=2SA1115F
}
N 38700 46500 39300 46500 4
N 39000 46500 39000 47400 4
C 39500 44200 1 180 0 vee-1.sym
N 39300 44200 39300 45500 4
N 38700 39000 38700 45500 4
C 34900 32800 1 0 0 diode-1.sym
{
T 35300 33400 5 10 0 0 0 0 1
device=DIODE
T 35200 33300 5 10 1 1 0 0 1
refdes=D52
T 34900 32800 5 10 0 0 0 0 1
value=1SS133
}
N 34900 33000 20000 33000 4
C 37200 31500 1 90 0 capacitor-1.sym
{
T 36500 31700 5 10 0 0 90 0 1
device=CAPACITOR
T 36300 31700 5 10 0 0 90 0 1
symversion=0.1
T 36900 32200 5 10 1 1 180 0 1
refdes=C59
T 37400 31900 5 10 1 1 180 0 1
value=0.1u
}
C 36900 30900 1 0 0 gnd-1.sym
N 37000 31200 37000 31500 4
N 37000 32400 37000 33200 4
N 37000 33000 35800 33000 4
N 39500 31200 39500 32700 4
C 38700 32500 1 90 0 capacitor-1.sym
{
T 38000 32700 5 10 0 0 90 0 1
device=CAPACITOR
T 37800 32700 5 10 0 0 90 0 1
symversion=0.1
T 38400 33300 5 10 1 1 180 0 1
refdes=C61
T 38900 32900 5 10 1 1 180 0 1
value=0.1u
}
C 38400 30900 1 0 0 gnd-1.sym
N 38500 31200 38500 32500 4
C 37100 33200 1 90 0 resistor-2.sym
{
T 36750 33600 5 10 0 0 90 0 1
device=RESISTOR
T 37600 33900 5 10 1 1 180 0 1
refdes=R233
T 37100 33400 5 10 1 1 0 0 1
value=470k
}
C 37100 34900 1 90 0 resistor-2.sym
{
T 36750 35300 5 10 0 0 90 0 1
device=RESISTOR
T 37600 35600 5 10 1 1 180 0 1
refdes=R234
T 37100 35100 5 10 1 1 0 0 1
value=470k
}
N 37000 34900 37000 34100 4
N 38500 34600 38500 33400 4
N 39500 34600 39500 33600 4
N 37000 34600 39500 34600 4
{
T 37100 34700 5 10 1 1 0 0 1
netname=env2
}
C 37500 36000 1 90 0 npn-1.sym
{
T 37000 36600 5 10 0 0 90 0 1
device=NPN_TRANSISTOR
T 37200 36800 5 10 1 1 180 0 1
refdes=Q37
T 36200 37100 5 10 0 1 0 0 1
value=2SC2603F
}
N 37000 35800 37000 36000 4
N 34700 36500 36500 36500 4
{
T 33800 36400 5 10 1 1 0 0 1
netname=whitenoise
}
C 44500 36700 1 180 1 opamp-1.sym
{
T 45200 35900 5 10 0 0 180 6 1
device=OPAMP
T 45200 35300 5 10 0 0 180 6 1
symversion=0.1
T 45200 36100 5 10 1 1 180 6 1
refdes=XIC28a
T 44500 36700 5 10 0 0 0 0 1
value=TL072
}
C 45200 36700 1 0 1 vee-1.sym
C 44800 35900 1 180 1 vcc-1.sym
N 37500 36500 44500 36500 4
C 43900 35600 1 0 0 gnd-1.sym
N 44500 36100 44000 36100 4
N 44000 36100 44000 35900 4
C 44600 37700 1 0 0 resistor-2.sym
{
T 45000 38050 5 10 0 0 0 0 1
device=RESISTOR
T 44800 38000 5 10 1 1 0 0 1
refdes=RVR20
T 44800 37500 5 10 1 1 0 0 1
value=50k
}
N 45500 37800 46000 37800 4
N 46000 36300 46000 37800 4
{
T 46000 36600 5 10 1 1 0 0 1
netname=output
}
N 46000 36300 45500 36300 4
N 44600 37800 44000 37800 4
N 44000 37800 44000 36500 4
C 39700 32700 1 90 0 diode-1.sym
{
T 39100 33100 5 10 0 0 90 0 1
device=DIODE
T 39200 33000 5 10 1 1 90 0 1
refdes=D53
T 39700 32700 5 10 0 0 90 0 1
value=1SS133
}
N 42700 44200 42700 44800 4
C 42900 44200 1 180 0 vee-1.sym
N 43500 46800 43500 47300 4
C 43400 46500 1 0 0 gnd-1.sym
N 43500 47300 42700 47300 4
N 42700 46000 41700 46000 4
C 42800 44800 1 90 0 resistor-2.sym
{
T 42450 45200 5 10 0 0 90 0 1
device=RESISTOR
T 42500 45000 5 10 1 1 90 0 1
refdes=RTM1
T 42800 45000 5 10 1 1 0 0 1
value=5k
}
C 42800 46300 1 90 0 resistor-2.sym
{
T 42450 46700 5 10 0 0 90 0 1
device=RESISTOR
T 42500 46500 5 10 1 1 90 0 1
refdes=RTM2
T 42800 46500 5 10 1 1 0 0 1
value=5k
}
N 42700 47300 42700 47200 4
N 42700 46300 42700 45700 4
T 43100 45900 9 10 1 0 0 0 1
RTM1 + RTM2 = 10k
N 28300 45000 28000 45000 4
C 39400 30900 1 0 0 gnd-1.sym
C 39200 39000 1 90 1 npn-1.sym
{
T 38700 38400 5 10 0 0 270 2 1
device=NPN_TRANSISTOR
T 38900 38200 5 10 1 1 0 6 1
refdes=QIC30
T 37900 37900 5 10 0 1 180 6 1
value=2SC2603F
}
C 43200 37000 1 90 0 capacitor-1.sym
{
T 42500 37200 5 10 0 0 90 0 1
device=CAPACITOR
T 42300 37200 5 10 0 0 90 0 1
symversion=0.1
T 42900 37700 5 10 1 1 180 0 1
refdes=C58
T 43400 37400 5 10 1 1 180 0 1
value=1n
}
C 41600 37300 1 90 0 resistor-2.sym
{
T 41250 37700 5 10 0 0 90 0 1
device=RESISTOR
T 41300 37500 5 10 1 1 90 0 1
refdes=R237
T 41600 37500 5 10 1 1 0 0 1
value=82k
}
C 41400 36900 1 0 0 gnd-1.sym
N 41500 37200 41500 37300 4
N 39200 38500 43000 38500 4
N 41500 38500 41500 38200 4
N 43000 38500 43000 37900 4
N 43000 37000 43000 36500 4
N 35500 36500 35500 38500 4
N 35500 38500 38200 38500 4
