v 20130925 2
C 43900 51100 1 0 0 resistor-2.sym
{
T 44300 51450 5 10 0 0 0 0 1
device=RESISTOR
T 44100 51400 5 10 1 1 0 0 1
refdes=R407
T 44100 50900 5 10 1 1 0 0 1
value=470k
}
C 44400 48200 1 90 0 resistor-2.sym
{
T 44050 48600 5 10 0 0 90 0 1
device=RESISTOR
T 44100 48400 5 10 1 1 90 0 1
refdes=R394
T 44500 48500 5 10 1 1 0 0 1
value=2.2k
}
C 43300 49600 1 0 0 capacitor-1.sym
{
T 43500 50300 5 10 0 0 0 0 1
device=CAPACITOR
T 43500 50100 5 10 1 1 0 0 1
refdes=C113
T 43500 50500 5 10 0 0 0 0 1
symversion=0.1
T 43500 49400 5 10 1 1 0 0 1
value=0.01u
}
C 44400 49600 1 0 0 capacitor-1.sym
{
T 44600 50300 5 10 0 0 0 0 1
device=CAPACITOR
T 44600 50100 5 10 1 1 0 0 1
refdes=C114
T 44600 50500 5 10 0 0 0 0 1
symversion=0.1
T 44600 49400 5 10 1 1 0 0 1
value=0.01u
}
N 44300 49100 44300 49800 4
N 44200 49800 44400 49800 4
C 44200 47900 1 0 0 gnd-1.sym
N 42800 52700 43900 52700 4
N 42800 52700 42800 49800 4
N 42800 49800 43300 49800 4
N 43900 51200 42800 51200 4
N 45300 49800 45800 49800 4
N 45800 49800 45800 52900 4
{
T 45800 49800 5 10 1 1 0 0 1
netname=osc1
}
N 44800 51200 45800 51200 4
N 42000 53100 43900 53100 4
N 45800 52900 44900 52900 4
C 43900 44900 1 0 0 resistor-2.sym
{
T 44300 45250 5 10 0 0 0 0 1
device=RESISTOR
T 44100 45200 5 10 1 1 0 0 1
refdes=R414
T 44100 44700 5 10 1 1 0 0 1
value=330k
}
C 44400 42000 1 90 0 resistor-2.sym
{
T 44050 42400 5 10 0 0 90 0 1
device=RESISTOR
T 44100 42200 5 10 1 1 90 0 1
refdes=R411
T 44500 42300 5 10 1 1 0 0 1
value=2.2k
}
C 43300 43400 1 0 0 capacitor-1.sym
{
T 43500 44100 5 10 0 0 0 0 1
device=CAPACITOR
T 43500 43900 5 10 1 1 0 0 1
refdes=C116
T 43500 44300 5 10 0 0 0 0 1
symversion=0.1
T 43500 43200 5 10 1 1 0 0 1
value=0.027u
}
C 44400 43400 1 0 0 capacitor-1.sym
{
T 44600 44100 5 10 0 0 0 0 1
device=CAPACITOR
T 44600 43900 5 10 1 1 0 0 1
refdes=C115
T 44600 44300 5 10 0 0 0 0 1
symversion=0.1
T 44600 43200 5 10 1 1 0 0 1
value=0.027u
}
N 44300 42900 44300 43600 4
N 44200 43600 44400 43600 4
C 44200 41700 1 0 0 gnd-1.sym
N 42800 46500 43900 46500 4
N 42800 46500 42800 43600 4
N 42800 43600 43300 43600 4
N 43900 45000 42800 45000 4
N 45300 43600 45800 43600 4
N 45800 43600 45800 46700 4
{
T 45800 43600 5 10 1 1 0 0 1
netname=osc2
}
N 44800 45000 45800 45000 4
N 45800 46700 44900 46700 4
C 43900 39000 1 0 0 resistor-2.sym
{
T 44300 39350 5 10 0 0 0 0 1
device=RESISTOR
T 44100 39300 5 10 1 1 0 0 1
refdes=R416
T 44100 38800 5 10 1 1 0 0 1
value=470k
}
C 44400 36100 1 90 0 resistor-2.sym
{
T 44050 36500 5 10 0 0 90 0 1
device=RESISTOR
T 44100 36300 5 10 1 1 90 0 1
refdes=R404
T 44500 36400 5 10 1 1 0 0 1
value=2.2k
}
C 43300 37500 1 0 0 capacitor-1.sym
{
T 43500 38200 5 10 0 0 0 0 1
device=CAPACITOR
T 43500 38000 5 10 1 1 0 0 1
refdes=C118
T 43500 38400 5 10 0 0 0 0 1
symversion=0.1
T 43500 37300 5 10 1 1 0 0 1
value=0.0047u
}
C 44400 37500 1 0 0 capacitor-1.sym
{
T 44600 38200 5 10 0 0 0 0 1
device=CAPACITOR
T 44600 38000 5 10 1 1 0 0 1
refdes=C117
T 44600 38400 5 10 0 0 0 0 1
symversion=0.1
T 44600 37300 5 10 1 1 0 0 1
value=0.0047u
}
N 44300 37000 44300 37700 4
N 44200 37700 44400 37700 4
C 44200 35800 1 0 0 gnd-1.sym
N 42800 40600 43900 40600 4
N 42800 40600 42800 37700 4
N 42800 37700 43300 37700 4
N 43900 39100 42800 39100 4
N 45300 37700 45800 37700 4
N 45800 37700 45800 40800 4
{
T 45800 37700 5 10 1 1 0 0 1
netname=osc3
}
N 44800 39100 45800 39100 4
N 33200 41000 43900 41000 4
{
T 33200 41000 5 10 1 1 0 0 1
netname=osctrig
}
N 45800 40800 44900 40800 4
C 45800 51900 1 0 0 resistor-2.sym
{
T 46200 52250 5 10 0 0 0 0 1
device=RESISTOR
T 46000 52200 5 10 1 1 0 0 1
refdes=R408
T 46000 51700 5 10 1 1 0 0 1
value=12k
}
C 45800 45600 1 0 0 resistor-2.sym
{
T 46200 45950 5 10 0 0 0 0 1
device=RESISTOR
T 46000 45900 5 10 1 1 0 0 1
refdes=R415
T 46000 45400 5 10 1 1 0 0 1
value=12k
}
C 45800 39600 1 0 0 resistor-2.sym
{
T 46200 39950 5 10 0 0 0 0 1
device=RESISTOR
T 46000 39900 5 10 1 1 0 0 1
refdes=R417
T 46000 39400 5 10 1 1 0 0 1
value=3.3k
}
N 46700 39700 48500 39700 4
N 47500 39700 47500 52000 4
{
T 47600 40800 5 10 1 1 0 0 1
netname=shaper
}
N 47500 52000 46700 52000 4
N 46700 45700 47500 45700 4
C 48500 39500 1 0 0 diode-1.sym
{
T 48900 40100 5 10 0 0 0 0 1
device=DIODE
T 48800 40000 5 10 1 1 0 0 1
refdes=D92
T 48500 39500 5 10 0 0 0 0 1
value=1SS133
}
C 49400 40500 1 0 1 diode-1.sym
{
T 49000 41100 5 10 0 0 0 6 1
device=DIODE
T 49100 41000 5 10 1 1 0 6 1
refdes=D91
T 49400 40500 5 10 0 0 0 0 1
value=1SS133
}
C 49300 40400 1 0 0 gnd-1.sym
C 49300 39400 1 0 0 gnd-1.sym
N 48500 40700 47500 40700 4
C 52400 50700 1 0 0 capacitor-1.sym
{
T 52600 51400 5 10 0 0 0 0 1
device=CAPACITOR
T 52600 51200 5 10 1 1 0 0 1
refdes=C120
T 52600 51600 5 10 0 0 0 0 1
symversion=0.1
T 52900 50700 5 10 1 1 0 0 1
value=220p
}
C 54700 49500 1 0 0 capacitor-1.sym
{
T 54900 50200 5 10 0 0 0 0 1
device=CAPACITOR
T 54900 50000 5 10 1 1 0 0 1
refdes=C121
T 54900 50400 5 10 0 0 0 0 1
symversion=0.1
T 54900 49400 5 10 1 1 0 0 1
value=0.01u
}
C 56000 49500 1 0 0 capacitor-1.sym
{
T 56200 50200 5 10 0 0 0 0 1
device=CAPACITOR
T 56200 50000 5 10 1 1 0 0 1
refdes=C122
T 56200 50400 5 10 0 0 0 0 1
symversion=0.1
T 56200 49400 5 10 1 1 0 0 1
value=0.01u
}
C 47900 49000 1 0 0 resistor-2.sym
{
T 48300 49350 5 10 0 0 0 0 1
device=RESISTOR
T 48100 49300 5 10 1 1 0 0 1
refdes=R423
T 48100 48800 5 10 1 1 0 0 1
value=12k
}
C 52400 52100 1 0 0 resistor-2.sym
{
T 52800 52450 5 10 0 0 0 0 1
device=RESISTOR
T 52600 52400 5 10 1 1 0 0 1
refdes=RVR19
T 52600 51900 5 10 1 1 0 0 1
value=100k
}
C 56800 51000 1 0 0 resistor-2.sym
{
T 57200 51350 5 10 0 0 0 0 1
device=RESISTOR
T 57000 51300 5 10 1 1 0 0 1
refdes=R422
T 57000 50800 5 10 1 1 0 0 1
value=22k
}
C 58600 51000 1 0 0 resistor-2.sym
{
T 59000 51350 5 10 0 0 0 0 1
device=RESISTOR
T 58800 51300 5 10 1 1 0 0 1
refdes=R421
T 58800 50800 5 10 1 1 0 0 1
value=4.7k
}
C 57200 47800 1 90 0 resistor-2.sym
{
T 56850 48200 5 10 0 0 90 0 1
device=RESISTOR
T 56900 48000 5 10 1 1 90 0 1
refdes=R420
T 57200 48000 5 10 1 1 0 0 1
value=220k
}
C 58300 47800 1 90 0 resistor-2.sym
{
T 57950 48200 5 10 0 0 90 0 1
device=RESISTOR
T 58000 48000 5 10 1 1 90 0 1
refdes=R419
T 58400 48000 5 10 1 1 0 0 1
value=4.7k
}
C 49300 47800 1 90 0 resistor-2.sym
{
T 48950 48200 5 10 0 0 90 0 1
device=RESISTOR
T 49000 48000 5 10 1 1 90 0 1
refdes=R418
T 49400 48200 5 10 1 1 0 0 1
value=680
}
N 58800 49700 56900 49700 4
N 56000 49700 55600 49700 4
N 54700 49700 53400 49700 4
N 56800 51100 55800 51100 4
N 55800 51100 55800 49700 4
N 58600 51100 57700 51100 4
N 58200 49300 58800 49300 4
N 57100 48700 57100 49700 4
N 58200 48700 58200 51100 4
N 59500 51100 61100 51100 4
N 61100 51100 61100 49500 4
{
T 61100 51100 5 10 1 1 0 0 1
netname=output
}
N 61100 49500 59800 49500 4
N 58200 47800 58200 47500 4
N 57100 47800 57100 47500 4
C 58100 47200 1 0 0 gnd-1.sym
C 57000 47200 1 0 0 gnd-1.sym
N 47900 49100 47500 49100 4
N 49200 48700 49200 49100 4
N 53300 52200 54000 52200 4
N 54000 52200 54000 49700 4
N 53300 50900 54000 50900 4
N 51700 49100 51700 52200 4
N 51700 52200 52400 52200 4
N 52400 50900 51700 50900 4
N 49200 47800 49200 47500 4
C 49100 47200 1 0 0 gnd-1.sym
C 51000 49600 1 90 1 npn-1.sym
{
T 50500 49000 5 10 0 0 270 2 1
device=NPN_TRANSISTOR
T 50500 49000 5 10 1 1 270 2 1
refdes=Q65
T 49700 48500 5 10 0 1 180 6 1
value=2SC2603F
}
N 51000 49100 51700 49100 4
N 48800 49100 50000 49100 4
C 36400 43400 1 0 0 npn-1.sym
{
T 37000 43900 5 10 0 0 0 0 1
device=NPN_TRANSISTOR
T 37000 43900 5 10 1 1 0 0 1
refdes=Q63
T 37500 44700 5 10 0 1 270 0 1
value=2SC2603F
}
N 36900 43400 36900 43100 4
C 36800 42800 1 0 0 gnd-1.sym
C 47900 55400 1 180 0 resistor-2.sym
{
T 47500 55050 5 10 0 0 180 0 1
device=RESISTOR
T 47700 55600 5 10 1 1 180 0 1
refdes=R401
T 47600 55200 5 10 1 1 180 0 1
value=2.7k
}
C 37000 49500 1 90 0 resistor-2.sym
{
T 36650 49900 5 10 0 0 90 0 1
device=RESISTOR
T 36700 49700 5 10 1 1 90 0 1
refdes=R402
T 37000 49700 5 10 1 1 0 0 1
value=1MEG
}
C 37000 47700 1 90 0 resistor-2.sym
{
T 36650 48100 5 10 0 0 90 0 1
device=RESISTOR
T 36700 47900 5 10 1 1 90 0 1
refdes=R400
T 37000 47900 5 10 1 1 0 0 1
value=47k
}
C 35700 42700 1 90 0 resistor-2.sym
{
T 35350 43100 5 10 0 0 90 0 1
device=RESISTOR
T 35400 42900 5 10 1 1 90 0 1
refdes=R398
T 35700 42700 5 10 1 1 0 0 1
value=10k
}
C 33300 41500 1 90 0 resistor-2.sym
{
T 32950 41900 5 10 0 0 90 0 1
device=RESISTOR
T 33000 41700 5 10 1 1 90 0 1
refdes=R396
T 33300 41700 5 10 1 1 0 0 1
value=22k
}
C 33300 39700 1 90 0 resistor-2.sym
{
T 32950 40100 5 10 0 0 90 0 1
device=RESISTOR
T 33000 39900 5 10 1 1 90 0 1
refdes=R395
T 33300 39900 5 10 1 1 0 0 1
value=22k
}
N 33200 41500 33200 40600 4
N 42000 53100 42000 41000 4
N 42000 46900 43900 46900 4
N 35600 42700 35600 42400 4
C 35500 42100 1 0 0 gnd-1.sym
N 33200 39700 33200 39400 4
C 33100 39100 1 0 0 gnd-1.sym
C 37100 46700 1 90 1 diode-1.sym
{
T 36500 46300 5 10 0 0 90 6 1
device=DIODE
T 36600 46400 5 10 1 1 90 6 1
refdes=D90
T 37100 46700 5 10 0 0 90 0 1
value=1SS133
}
C 33400 43700 1 90 1 diode-1.sym
{
T 32800 43300 5 10 0 0 90 6 1
device=DIODE
T 32900 43400 5 10 1 1 90 6 1
refdes=D89
T 33400 43700 5 10 0 0 90 0 1
value=1SS133
}
N 33200 42800 33200 42400 4
N 33200 43700 33200 43900 4
N 35600 43600 35600 43900 4
C 39200 50600 1 270 1 pnp-1.sym
{
T 39700 51200 5 10 0 0 270 6 1
device=PNP_TRANSISTOR
T 39800 51300 5 10 1 1 0 6 1
refdes=Q64
T 40500 51700 5 10 0 1 180 2 1
value=2SA1115F
}
N 36900 49500 36900 48600 4
N 36900 47700 36900 46700 4
N 36900 45800 36900 44400 4
N 36900 50400 36900 51100 4
N 36900 51100 39200 51100 4
C 33800 54600 1 0 0 resistor-2.sym
{
T 34200 54950 5 10 0 0 0 0 1
device=RESISTOR
T 34000 54900 5 10 1 1 0 0 1
refdes=R397
T 34000 54400 5 10 1 1 0 0 1
value=4.7k
}
C 36700 54600 1 0 0 resistor-2.sym
{
T 37100 54950 5 10 0 0 0 0 1
device=RESISTOR
T 36900 54900 5 10 1 1 0 0 1
refdes=R406
T 36900 54400 5 10 1 1 0 0 1
value=10k
}
N 36200 53500 35700 53500 4
{
T 35500 53600 5 10 1 1 0 0 1
netname=acc
}
N 34700 54700 36700 54700 4
N 39200 51100 39200 54700 4
N 39200 54700 37600 54700 4
N 37200 53300 39200 53300 4
N 35300 54700 35300 53100 4
N 35300 53100 36200 53100 4
C 33200 53900 1 0 0 gnd-1.sym
N 33800 54700 33300 54700 4
N 33300 54700 33300 54200 4
C 50600 50700 1 90 0 resistor-2.sym
{
T 50250 51100 5 10 0 0 90 0 1
device=RESISTOR
T 50300 50900 5 10 1 1 90 0 1
refdes=R403
T 50700 50900 5 10 1 1 0 0 1
value=1MEG
}
C 48300 53900 1 270 1 capacitor-1.sym
{
T 49000 54100 5 10 0 0 90 2 1
device=CAPACITOR
T 48100 54100 5 10 1 1 90 2 1
refdes=C119
T 49200 54100 5 10 0 0 90 2 1
symversion=0.1
T 49100 54100 5 10 1 1 180 2 1
value=0.047u
}
C 48400 53300 1 0 0 gnd-1.sym
C 31300 43700 1 0 0 capacitor-1.sym
{
T 31500 44400 5 10 0 0 0 0 1
device=CAPACITOR
T 31500 44200 5 10 1 1 0 0 1
refdes=C111
T 31500 44600 5 10 0 0 0 0 1
symversion=0.1
T 31500 43500 5 10 1 1 0 0 1
value=0.018u
}
N 31300 43900 30500 43900 4
{
T 30100 43900 5 10 1 1 0 0 1
netname=trig
}
C 33900 43800 1 0 0 resistor-2.sym
{
T 34300 44150 5 10 0 0 0 0 1
device=RESISTOR
T 34100 44100 5 10 1 1 0 0 1
refdes=R399
T 34100 43600 5 10 1 1 0 0 1
value=22k
}
N 34800 43900 36400 43900 4
N 32200 43900 33900 43900 4
N 52400 49500 51700 49500 4
C 36200 52900 1 0 0 opamp-1.sym
{
T 36900 53700 5 10 0 0 0 0 1
device=OPAMP
T 36900 53500 5 10 1 1 0 0 1
refdes=XIC48b
T 36900 54300 5 10 0 0 0 0 1
symversion=0.1
T 36200 52900 5 10 0 0 0 0 1
value=TL072
}
C 43900 40400 1 0 0 opamp-1.sym
{
T 44600 41200 5 10 0 0 0 0 1
device=OPAMP
T 44600 41800 5 10 0 0 0 0 1
symversion=0.1
T 43900 40400 5 10 0 0 0 0 1
value=TL072
T 44600 41000 5 10 1 1 0 0 1
refdes=XIC49b
}
C 43900 46300 1 0 0 opamp-1.sym
{
T 44600 47100 5 10 0 0 0 0 1
device=OPAMP
T 44600 47700 5 10 0 0 0 0 1
symversion=0.1
T 43900 46300 5 10 0 0 0 0 1
value=TL072
T 44600 46900 5 10 1 1 0 0 1
refdes=XIC49a
}
C 43900 52500 1 0 0 opamp-1.sym
{
T 44600 53300 5 10 0 0 0 0 1
device=OPAMP
T 44600 53900 5 10 0 0 0 0 1
symversion=0.1
T 43900 52500 5 10 0 0 0 0 1
value=TL072
T 44600 53100 5 10 1 1 0 0 1
refdes=XIC48a
}
C 58800 49100 1 0 0 opamp-1.sym
{
T 59500 49900 5 10 0 0 0 0 1
device=OPAMP
T 59500 50500 5 10 0 0 0 0 1
symversion=0.1
T 58800 49100 5 10 0 0 0 0 1
value=TL072
T 59500 49700 5 10 1 1 0 0 1
refdes=XIC50b
}
C 52400 49300 1 0 0 opamp-1.sym
{
T 53100 50100 5 10 0 0 0 0 1
device=OPAMP
T 53100 50700 5 10 0 0 0 0 1
symversion=0.1
T 52400 49300 5 10 0 0 0 0 1
value=TL072
T 53100 49900 5 10 1 1 0 0 1
refdes=XIC50a
}
N 52000 49900 52400 49900 4
C 51900 49600 1 0 0 gnd-1.sym
C 36500 53700 1 0 0 vcc-1.sym
C 44200 53300 1 0 0 vcc-1.sym
C 44200 47100 1 0 0 vcc-1.sym
C 44200 41200 1 0 0 vcc-1.sym
C 52700 50100 1 0 0 vcc-1.sym
C 59100 49900 1 0 0 vcc-1.sym
C 53100 49300 1 180 0 vee-1.sym
C 59500 49100 1 180 0 vee-1.sym
C 44600 52500 1 180 0 vee-1.sym
C 44600 46300 1 180 0 vee-1.sym
C 44600 40400 1 180 0 vee-1.sym
C 36900 52900 1 180 0 vee-1.sym
N 50500 50700 50500 49600 4
N 47900 55300 50500 55300 4
{
T 50200 55300 5 10 1 1 0 0 1
netname=env
}
N 50500 55300 50500 51600 4
N 48500 54800 48500 55300 4
N 48500 53600 48500 53900 4
N 40500 51100 40500 55300 4
N 40500 55300 47000 55300 4
N 40200 51100 40500 51100 4
N 39700 50600 39700 49000 4
N 39700 49000 36900 49000 4
