v 20130925 2
C 10000 79400 1 0 0 resistor-2.sym
{
T 10400 79750 5 10 0 0 0 0 1
device=RESISTOR
T 10200 79700 5 10 1 1 0 0 1
refdes=R240
T 10200 79200 5 10 1 1 0 0 1
value=4.7k
}
C 13300 80900 1 0 0 resistor-2.sym
{
T 13700 81250 5 10 0 0 0 0 1
device=RESISTOR
T 13500 81200 5 10 1 1 0 0 1
refdes=R241
T 13500 80700 5 10 1 1 0 0 1
value=10k
}
N 10900 79500 13000 79500 4
N 13300 81000 12000 81000 4
N 12000 81000 12000 79500 4
N 14200 81000 20500 81000 4
N 15000 74000 15000 81000 4
N 13000 79100 11800 79100 4
{
T 11300 79100 5 10 1 1 0 0 1
netname=acc
}
C 9400 78400 1 0 0 gnd-1.sym
N 10000 79500 9500 79500 4
N 9500 78700 9500 79500 4
C 20500 80500 1 270 1 pnp-1.sym
{
T 21000 81100 5 10 0 0 90 2 1
device=PNP_TRANSISTOR
T 21000 81100 5 10 1 1 90 2 1
refdes=Q42
T 20500 80500 5 10 0 0 90 8 1
value=2SA1115F
}
C 21100 79400 1 90 0 resistor-2.sym
{
T 20750 79800 5 10 0 0 90 0 1
device=RESISTOR
T 20800 79600 5 10 1 1 90 0 1
refdes=R256
T 21100 79600 5 10 1 1 0 0 1
value=1MEG
}
C 21200 76700 1 90 1 diode-1.sym
{
T 20600 76300 5 10 0 0 90 6 1
device=DIODE
T 20700 76500 5 10 1 1 90 6 1
refdes=D61
T 21200 76700 5 10 0 0 90 0 1
value=1SS133
}
C 17000 77500 1 270 1 pnp-1.sym
{
T 17500 78100 5 10 0 0 90 2 1
device=PNP_TRANSISTOR
T 17500 78100 5 10 1 1 90 2 1
refdes=Q41
T 17000 77500 5 10 0 0 90 8 1
value=2SA1115F
}
C 15600 73900 1 0 0 resistor-2.sym
{
T 16000 74250 5 10 0 0 0 0 1
device=RESISTOR
T 15800 74200 5 10 1 1 0 0 1
refdes=R255
T 15800 73700 5 10 1 1 0 0 1
value=100k
}
N 15000 74000 15600 74000 4
N 21000 80500 21000 80300 4
N 21000 79400 21000 76700 4
N 21500 81000 22400 81000 4
C 24700 73900 1 0 0 resistor-2.sym
{
T 25100 74250 5 10 0 0 0 0 1
device=RESISTOR
T 24900 74200 5 10 1 1 0 0 1
refdes=R286
T 24900 73700 5 10 1 1 0 0 1
value=10k
}
C 26100 72500 1 90 0 resistor-2.sym
{
T 25750 72900 5 10 0 0 90 0 1
device=RESISTOR
T 25800 72700 5 10 1 1 90 0 1
refdes=R285
T 26100 72700 5 10 1 1 0 0 1
value=3.3k
}
C 25900 71900 1 0 0 gnd-1.sym
N 26000 72200 26000 72500 4
N 26000 74000 26000 73400 4
N 25600 74000 26500 74000 4
C 28500 73900 1 0 0 resistor-2.sym
{
T 28900 74250 5 10 0 0 0 0 1
device=RESISTOR
T 28700 74200 5 10 1 1 0 0 1
refdes=R301
T 28700 73700 5 10 1 1 0 0 1
value=22k
}
C 27900 71900 1 0 0 gnd-1.sym
N 28000 72200 28000 72500 4
N 28000 74000 28000 73400 4
N 27400 74000 28500 74000 4
C 30600 73900 1 0 0 resistor-2.sym
{
T 31000 74250 5 10 0 0 0 0 1
device=RESISTOR
T 30800 74200 5 10 1 1 0 0 1
refdes=R300
T 30800 73700 5 10 1 1 0 0 1
value=22k
}
N 29400 74000 30600 74000 4
N 31500 74000 33000 74000 4
N 24700 74000 23400 74000 4
{
T 22400 74000 5 10 1 1 0 0 1
netname=whitenoise
}
C 17000 78800 1 0 0 capacitor-1.sym
{
T 17200 79500 5 10 0 0 0 0 1
device=CAPACITOR
T 17300 79300 5 10 1 1 0 0 1
refdes=C68
T 17200 79700 5 10 0 0 0 0 1
symversion=0.1
T 17100 78600 5 10 1 1 0 0 1
value=0.0068u
}
N 15000 79000 17000 79000 4
N 17900 79000 21000 79000 4
C 17600 75800 1 90 0 resistor-2.sym
{
T 17250 76200 5 10 0 0 90 0 1
device=RESISTOR
T 17300 76000 5 10 1 1 90 0 1
refdes=R257
T 17600 76000 5 10 1 1 0 0 1
value=100k
}
C 17700 75300 1 90 1 diode-1.sym
{
T 17100 74900 5 10 0 0 90 6 1
device=DIODE
T 17200 75100 5 10 1 1 90 6 1
refdes=D58
T 17700 75300 5 10 0 0 90 0 1
value=1SS133
}
C 22400 81200 1 180 1 diode-1.sym
{
T 22800 80600 5 10 0 0 180 6 1
device=DIODE
T 22700 80700 5 10 1 1 180 6 1
refdes=D60
T 22400 81200 5 10 0 0 180 0 1
value=1SS133
}
N 17500 77500 17500 76700 4
N 17500 75800 17500 75300 4
N 17000 78000 15000 78000 4
C 19000 74900 1 0 0 resistor-2.sym
{
T 19400 75250 5 10 0 0 0 0 1
device=RESISTOR
T 19200 75200 5 10 1 1 0 0 1
refdes=R243
T 19200 74700 5 10 1 1 0 0 1
value=10k
}
N 16500 74000 18700 74000 4
C 17900 72300 1 0 0 gnd-1.sym
N 18700 73600 18000 73600 4
N 18000 72600 18000 73600 4
N 19000 75000 18000 75000 4
N 18000 75000 18000 74000 4
N 21000 75800 21000 71000 4
N 19700 73800 20500 73800 4
N 20500 73800 20500 75000 4
C 25100 79800 1 90 0 resistor-2.sym
{
T 24750 80200 5 10 0 0 90 0 1
device=RESISTOR
T 24800 80000 5 10 1 1 90 0 1
refdes=RVR7
T 25100 80000 5 10 1 1 0 0 1
value=500k
}
C 25100 78300 1 90 0 resistor-2.sym
{
T 24750 78700 5 10 0 0 90 0 1
device=RESISTOR
T 24800 78500 5 10 1 1 90 0 1
refdes=R254
T 25100 78500 5 10 1 1 0 0 1
value=100k
}
N 25000 80700 25000 81000 4
N 25000 79200 25000 79800 4
N 19900 75000 25000 75000 4
N 25000 75000 25000 78300 4
N 23300 81000 29400 81000 4
{
T 27500 81100 5 10 1 1 0 0 1
netname=env4
}
C 26300 79400 1 270 1 diode-1.sym
{
T 26900 79800 5 10 0 0 270 6 1
device=DIODE
T 26800 79600 5 10 1 1 270 6 1
refdes=D59
T 26300 79400 5 10 0 0 270 0 1
value=1SS133
}
C 28300 80300 1 270 0 capacitor-2.sym
{
T 29000 80100 5 10 0 0 270 0 1
device=POLARIZED_CAPACITOR
T 28000 79900 5 10 1 1 0 0 1
refdes=C67
T 29200 80100 5 10 0 0 270 0 1
symversion=0.1
T 27900 79600 5 10 1 1 0 0 1
value=0.47u
}
N 28500 81000 28500 80300 4
C 28400 78400 1 0 0 gnd-1.sym
N 28500 78700 28500 79400 4
C 26400 78400 1 0 0 gnd-1.sym
N 26500 78700 26500 79400 4
N 26500 80300 26500 81000 4
C 29400 80900 1 0 0 resistor-2.sym
{
T 29800 81250 5 10 0 0 0 0 1
device=RESISTOR
T 29600 81200 5 10 1 1 0 0 1
refdes=R297
T 29600 80700 5 10 1 1 0 0 1
value=220k
}
C 36500 80500 1 90 1 npn-1.sym
{
T 36000 79900 5 10 0 0 270 2 1
device=NPN_TRANSISTOR
T 36000 79900 5 10 1 1 270 2 1
refdes=Q48
T 35200 79400 5 10 0 1 180 6 1
value=2SD1469R
}
C 50000 75000 1 90 0 npn-1.sym
{
T 49500 75600 5 10 0 0 90 0 1
device=NPN_TRANSISTOR
T 49500 75600 5 10 1 1 90 0 1
refdes=Q47
T 48700 76100 5 10 0 1 0 0 1
value=2SD1469R
}
C 32800 79900 1 0 0 resistor-2.sym
{
T 33200 80250 5 10 0 0 0 0 1
device=RESISTOR
T 33000 80200 5 10 1 1 0 0 1
refdes=R299
T 33000 79700 5 10 1 1 0 0 1
value=4.7k
}
C 34400 78400 1 0 0 gnd-1.sym
N 34500 78700 34500 78900 4
C 34600 78900 1 90 0 resistor-2.sym
{
T 34250 79300 5 10 0 0 90 0 1
device=RESISTOR
T 34300 79100 5 10 1 1 90 0 1
refdes=R298
T 34600 79100 5 10 1 1 0 0 1
value=47
}
C 32700 78500 1 90 0 capacitor-1.sym
{
T 32000 78700 5 10 0 0 90 0 1
device=CAPACITOR
T 32200 78800 5 10 1 1 90 0 1
refdes=C80
T 31800 78700 5 10 0 0 90 0 1
symversion=0.1
T 32900 78700 5 10 1 1 90 0 1
value=0.022u
}
N 32800 80000 32500 80000 4
N 32500 80000 32500 79400 4
N 35500 80000 33700 80000 4
N 34500 79800 34500 80000 4
N 36000 80500 36000 81000 4
N 36000 81000 30300 81000 4
N 32500 74400 32500 78500 4
C 26500 73800 1 0 0 capacitor-1.sym
{
T 26700 74500 5 10 0 0 0 0 1
device=CAPACITOR
T 26800 74300 5 10 1 1 0 0 1
refdes=C85
T 26700 74700 5 10 0 0 0 0 1
symversion=0.1
T 26600 73600 5 10 1 1 0 0 1
value=0.015u
}
C 28100 72500 1 90 0 resistor-2.sym
{
T 27750 72900 5 10 0 0 90 0 1
device=RESISTOR
T 27800 72700 5 10 1 1 90 0 1
refdes=R302
T 28100 72700 5 10 1 1 0 0 1
value=220k
}
C 31000 70800 1 0 0 capacitor-1.sym
{
T 31200 71500 5 10 0 0 0 0 1
device=CAPACITOR
T 31300 71300 5 10 1 1 0 0 1
refdes=C81
T 31200 71700 5 10 0 0 0 0 1
symversion=0.1
T 31100 70600 5 10 1 1 0 0 1
value=0.0033u
}
N 31000 71000 30000 71000 4
N 30000 71000 30000 74000 4
C 31900 71900 1 0 0 gnd-1.sym
N 32000 72200 32000 72500 4
N 32000 74000 32000 73400 4
C 32200 72500 1 90 0 capacitor-1.sym
{
T 31500 72700 5 10 0 0 90 0 1
device=CAPACITOR
T 31700 72800 5 10 1 1 90 0 1
refdes=C84
T 31300 72700 5 10 0 0 90 0 1
symversion=0.1
T 32400 72700 5 10 1 1 90 0 1
value=220p
}
C 36200 73800 1 0 0 capacitor-1.sym
{
T 36400 74500 5 10 0 0 0 0 1
device=CAPACITOR
T 36500 74300 5 10 1 1 0 0 1
refdes=C76
T 36400 74700 5 10 0 0 0 0 1
symversion=0.1
T 36300 73600 5 10 1 1 0 0 1
value=0.0022u
}
C 38700 73800 1 0 0 capacitor-1.sym
{
T 38900 74500 5 10 0 0 0 0 1
device=CAPACITOR
T 39000 74300 5 10 1 1 0 0 1
refdes=C75
T 38900 74700 5 10 0 0 0 0 1
symversion=0.1
T 38800 73600 5 10 1 1 0 0 1
value=0.0022u
}
C 40400 71900 1 0 0 gnd-1.sym
N 40500 72200 40500 72500 4
N 40500 74000 40500 73400 4
N 39600 74000 41500 74000 4
C 40600 72500 1 90 0 resistor-2.sym
{
T 40250 72900 5 10 0 0 90 0 1
device=RESISTOR
T 40300 72700 5 10 1 1 90 0 1
refdes=R277
T 40600 72700 5 10 1 1 0 0 1
value=47k
}
C 39000 70900 1 0 0 resistor-2.sym
{
T 39400 71250 5 10 0 0 0 0 1
device=RESISTOR
T 39200 71200 5 10 1 1 0 0 1
refdes=R276
T 39200 70700 5 10 1 1 0 0 1
value=6.8k
}
N 35500 75500 35500 71000 4
N 35500 71000 31900 71000 4
N 36200 74000 35500 74000 4
N 37100 74000 38700 74000 4
N 38000 74000 38000 71000 4
N 38000 71000 39000 71000 4
N 39900 71000 44000 71000 4
N 44000 71000 44000 75500 4
N 42500 74200 44000 74200 4
N 33000 74400 32500 74400 4
N 32500 75500 35500 75500 4
N 41500 74400 41000 74400 4
N 41000 74400 41000 75500 4
N 41000 75500 45900 75500 4
C 45900 75400 1 0 0 resistor-2.sym
{
T 46300 75750 5 10 0 0 0 0 1
device=RESISTOR
T 46100 75700 5 10 1 1 0 0 1
refdes=R278
T 46100 75200 5 10 1 1 0 0 1
value=2.2k
}
C 47600 74100 1 90 0 resistor-2.sym
{
T 47250 74500 5 10 0 0 90 0 1
device=RESISTOR
T 47300 74300 5 10 1 1 90 0 1
refdes=R279
T 47600 74300 5 10 1 1 0 0 1
value=47
}
C 47400 73500 1 0 0 gnd-1.sym
N 47500 73800 47500 74100 4
N 47500 75500 47500 75000 4
N 46800 75500 49000 75500 4
C 45800 73200 1 180 1 diode-1.sym
{
T 46200 72600 5 10 0 0 180 6 1
device=DIODE
T 46100 72700 5 10 1 1 180 6 1
refdes=D64
T 45800 73200 5 10 0 0 180 0 1
value=1SS133
}
C 49600 73300 1 90 0 resistor-2.sym
{
T 49250 73700 5 10 0 0 90 0 1
device=RESISTOR
T 49300 73500 5 10 1 1 90 0 1
refdes=R280
T 49600 73500 5 10 1 1 0 0 1
value=220k
}
C 49700 71700 1 90 0 capacitor-1.sym
{
T 49000 71900 5 10 0 0 90 0 1
device=CAPACITOR
T 49200 72000 5 10 1 1 90 0 1
refdes=C73
T 48800 71900 5 10 0 0 90 0 1
symversion=0.1
T 49900 71900 5 10 1 1 90 0 1
value=470p
}
C 49400 71000 1 0 0 gnd-1.sym
N 49500 71300 49500 71700 4
N 49500 75000 49500 74200 4
N 49500 73300 49500 72600 4
N 49500 73000 46700 73000 4
{
T 49600 73000 5 10 1 1 0 0 1
netname=env5
}
N 45800 73000 45000 73000 4
N 45000 73000 45000 78000 4
N 36500 80000 52500 80000 4
N 51000 75500 51000 80000 4
N 51000 75500 50000 75500 4
C 52500 81900 1 0 0 resistor-2.sym
{
T 52900 82250 5 10 0 0 0 0 1
device=RESISTOR
T 52700 82200 5 10 1 1 0 0 1
refdes=RVR9
T 52700 81700 5 10 1 1 0 0 1
value=10k
}
N 52500 82000 51000 82000 4
N 51000 82000 51000 80000 4
N 55000 82000 53400 82000 4
N 55000 79800 55000 82000 4
N 55000 79800 53500 79800 4
C 51900 78800 1 0 0 gnd-1.sym
N 52500 79600 52000 79600 4
N 52000 79100 52000 79600 4
C 52500 80800 1 0 0 capacitor-1.sym
{
T 52700 81500 5 10 0 0 0 0 1
device=CAPACITOR
T 52700 81300 5 10 1 1 0 0 1
refdes=C77
T 52700 81700 5 10 0 0 0 0 1
symversion=0.1
T 53000 80800 5 10 1 1 0 0 1
value=10p
}
N 52500 81000 51000 81000 4
N 53400 81000 55000 81000 4
C 52000 73500 1 0 1 npn-1.sym
{
T 51400 74000 5 10 0 0 0 6 1
device=NPN_TRANSISTOR
T 51400 74000 5 10 1 1 0 6 1
refdes=Q43
T 50900 74800 5 10 0 1 270 2 1
value=2SC2603F
}
N 51500 74500 49500 74500 4
C 51400 71000 1 0 0 gnd-1.sym
N 51500 71300 51500 73500 4
C 53100 72300 1 90 0 resistor-2.sym
{
T 52750 72700 5 10 0 0 90 0 1
device=RESISTOR
T 52800 72500 5 10 1 1 90 0 1
refdes=R265
T 53100 72500 5 10 1 1 0 0 1
value=22k
}
C 52900 71000 1 0 0 gnd-1.sym
N 53000 71300 53000 72300 4
N 53000 74000 53000 73200 4
C 53700 73900 1 0 0 resistor-2.sym
{
T 54100 74250 5 10 0 0 0 0 1
device=RESISTOR
T 53900 74200 5 10 1 1 0 0 1
refdes=R266
T 53900 73700 5 10 1 1 0 0 1
value=100k
}
N 53700 74000 52000 74000 4
N 54600 74000 55500 74000 4
N 41000 61400 41000 60000 4
C 56400 61900 1 0 0 resistor-2.sym
{
T 56800 62250 5 10 0 0 0 0 1
device=RESISTOR
T 56600 62200 5 10 1 1 0 0 1
refdes=R263
T 56600 61700 5 10 1 1 0 0 1
value=10k
}
N 56400 62000 54000 62000 4
N 58000 62000 57300 62000 4
N 58000 60000 56600 60000 4
C 55200 58200 1 0 0 gnd-1.sym
N 55600 59800 55300 59800 4
N 55300 58500 55300 59800 4
N 55600 60200 53100 60200 4
C 39100 59900 1 0 0 resistor-2.sym
{
T 39500 60250 5 10 0 0 0 0 1
device=RESISTOR
T 39300 60200 5 10 1 1 0 0 1
refdes=R262
T 39300 59700 5 10 1 1 0 0 1
value=100k
}
C 41100 61400 1 90 0 resistor-2.sym
{
T 40750 61800 5 10 0 0 90 0 1
device=RESISTOR
T 40800 61600 5 10 1 1 90 0 1
refdes=R275
T 41100 61600 5 10 1 1 0 0 1
value=10k
}
N 40000 60000 42500 60000 4
N 39100 60000 38500 60000 4
N 38500 60000 38500 59500 4
N 42500 60400 42000 60400 4
N 41000 58000 42700 58000 4
C 42700 57900 1 0 0 resistor-2.sym
{
T 43100 58250 5 10 0 0 0 0 1
device=RESISTOR
T 42900 58200 5 10 1 1 0 0 1
refdes=R260
T 42900 57700 5 10 1 1 0 0 1
value=100k
}
N 44500 60200 44500 58000 4
N 44500 58000 43600 58000 4
C 41200 64100 1 90 1 diode-1.sym
{
T 40600 63700 5 10 0 0 90 6 1
device=DIODE
T 40700 63900 5 10 1 1 90 6 1
refdes=D62
T 41200 64100 5 10 0 0 90 0 1
value=1SS133
}
N 41000 63200 41000 62300 4
N 41000 64100 41000 66000 4
C 38400 59200 1 0 0 gnd-1.sym
C 44900 60100 1 0 0 resistor-2.sym
{
T 45300 60450 5 10 0 0 0 0 1
device=RESISTOR
T 45100 60400 5 10 1 1 0 0 1
refdes=R259
T 45100 59900 5 10 1 1 0 0 1
value=100k
}
N 43500 60200 44900 60200 4
C 52200 60100 1 0 0 resistor-2.sym
{
T 52600 60450 5 10 0 0 0 0 1
device=RESISTOR
T 52400 60400 5 10 1 1 0 0 1
refdes=R261
T 52400 59900 5 10 1 1 0 0 1
value=47k
}
C 46600 55900 1 0 0 resistor-2.sym
{
T 47000 56250 5 10 0 0 0 0 1
device=RESISTOR
T 46800 56200 5 10 1 1 0 0 1
refdes=R269
T 46800 55700 5 10 1 1 0 0 1
value=100k
}
N 46600 56000 42000 56000 4
N 41000 58000 41000 60000 4
C 56300 57300 1 0 0 capacitor-1.sym
{
T 56500 58000 5 10 0 0 0 0 1
device=CAPACITOR
T 56600 57800 5 10 1 1 0 0 1
refdes=C69
T 56500 58200 5 10 0 0 0 0 1
symversion=0.1
T 56400 57100 5 10 1 1 0 0 1
value=0.01u
}
C 53500 61000 1 0 0 npn-1.sym
{
T 54100 61500 5 10 0 0 0 0 1
device=NPN_TRANSISTOR
T 54100 61500 5 10 1 1 0 0 1
refdes=Q44
T 54600 62300 5 10 0 1 270 0 1
value=2SC2603F
}
N 54000 61000 54000 60200 4
N 54000 60200 54000 57500 4
N 54000 57500 56300 57500 4
N 57200 57500 58000 57500 4
N 47500 56000 58000 56000 4
C 52000 61400 1 0 0 resistor-2.sym
{
T 52400 61750 5 10 0 0 0 0 1
device=RESISTOR
T 52200 61700 5 10 1 1 0 0 1
refdes=R258
T 52200 61200 5 10 1 1 0 0 1
value=1MEG
}
N 53500 61500 52900 61500 4
N 52000 61500 50000 61500 4
N 50000 61500 50000 66000 4
N 62000 61400 62000 60000 4
C 77400 61900 1 0 0 resistor-2.sym
{
T 77800 62250 5 10 0 0 0 0 1
device=RESISTOR
T 77600 62200 5 10 1 1 0 0 1
refdes=R268
T 77600 61700 5 10 1 1 0 0 1
value=10k
}
N 77400 62000 75000 62000 4
N 79000 62000 78300 62000 4
N 79000 60000 77600 60000 4
C 76200 58200 1 0 0 gnd-1.sym
N 76600 59800 76300 59800 4
N 76300 58500 76300 59800 4
N 76600 60200 74100 60200 4
C 60100 59900 1 0 0 resistor-2.sym
{
T 60500 60250 5 10 0 0 0 0 1
device=RESISTOR
T 60300 60200 5 10 1 1 0 0 1
refdes=R271
T 60300 59700 5 10 1 1 0 0 1
value=100k
}
C 62100 61400 1 90 0 resistor-2.sym
{
T 61750 61800 5 10 0 0 90 0 1
device=RESISTOR
T 61800 61600 5 10 1 1 90 0 1
refdes=R274
T 62100 61600 5 10 1 1 0 0 1
value=10k
}
N 61000 60000 63500 60000 4
N 60100 60000 59500 60000 4
N 59500 60000 59500 59500 4
N 63500 60400 63000 60400 4
N 63000 60400 63000 56000 4
N 62000 58000 63700 58000 4
C 63700 57900 1 0 0 resistor-2.sym
{
T 64100 58250 5 10 0 0 0 0 1
device=RESISTOR
T 63900 58200 5 10 1 1 0 0 1
refdes=R272
T 63900 57700 5 10 1 1 0 0 1
value=100k
}
N 65500 60200 65500 58000 4
N 65500 58000 64600 58000 4
C 62200 64100 1 90 1 diode-1.sym
{
T 61600 63700 5 10 0 0 90 6 1
device=DIODE
T 61700 63900 5 10 1 1 90 6 1
refdes=D63
T 62200 64100 5 10 0 0 90 0 1
value=1SS133
}
N 62000 63200 62000 62300 4
C 59400 59200 1 0 0 gnd-1.sym
C 66300 60100 1 0 0 resistor-2.sym
{
T 66700 60450 5 10 0 0 0 0 1
device=RESISTOR
T 66500 60400 5 10 1 1 0 0 1
refdes=R270
T 66500 59900 5 10 1 1 0 0 1
value=100k
}
N 64500 60200 66300 60200 4
C 73200 60100 1 0 0 resistor-2.sym
{
T 73600 60450 5 10 0 0 0 0 1
device=RESISTOR
T 73400 60400 5 10 1 1 0 0 1
refdes=R264
T 73400 59900 5 10 1 1 0 0 1
value=47k
}
C 67600 55900 1 0 0 resistor-2.sym
{
T 68000 56250 5 10 0 0 0 0 1
device=RESISTOR
T 67800 56200 5 10 1 1 0 0 1
refdes=R273
T 67800 55700 5 10 1 1 0 0 1
value=100k
}
N 67600 56000 63000 56000 4
N 62000 58000 62000 60000 4
C 77300 57300 1 0 0 capacitor-1.sym
{
T 77500 58000 5 10 0 0 0 0 1
device=CAPACITOR
T 77600 57800 5 10 1 1 0 0 1
refdes=C71
T 77500 58200 5 10 0 0 0 0 1
symversion=0.1
T 77400 57100 5 10 1 1 0 0 1
value=0.0068u
}
C 74500 61000 1 0 0 npn-1.sym
{
T 75100 61500 5 10 0 0 0 0 1
device=NPN_TRANSISTOR
T 75100 61500 5 10 1 1 0 0 1
refdes=Q45
T 75600 62300 5 10 0 1 270 0 1
value=2SC2603F
}
N 75000 61000 75000 60200 4
N 75000 60200 75000 57500 4
N 75000 57500 77300 57500 4
N 78200 57500 79000 57500 4
N 68500 56000 79000 56000 4
C 73000 61400 1 0 0 resistor-2.sym
{
T 73400 61750 5 10 0 0 0 0 1
device=RESISTOR
T 73200 61700 5 10 1 1 0 0 1
refdes=R267
T 73200 61200 5 10 1 1 0 0 1
value=1MEG
}
N 74500 61500 73900 61500 4
N 73000 61500 71000 61500 4
N 71000 61500 71000 66000 4
N 62000 64100 62000 66000 4
C 58500 73900 1 0 0 resistor-2.sym
{
T 58900 74250 5 10 0 0 0 0 1
device=RESISTOR
T 58700 74200 5 10 1 1 0 0 1
refdes=R283
T 58700 73700 5 10 1 1 0 0 1
value=10k
}
C 62200 73300 1 90 1 diode-1.sym
{
T 61600 72900 5 10 0 0 90 6 1
device=DIODE
T 61700 73000 5 10 1 1 90 6 1
refdes=D66
T 62200 73300 5 10 0 0 90 0 1
value=1SS133
}
C 60300 72400 1 270 1 diode-1.sym
{
T 60900 72800 5 10 0 0 270 6 1
device=DIODE
T 60800 72700 5 10 1 1 270 6 1
refdes=D65
T 60300 72400 5 10 0 0 270 0 1
value=1SS133
}
C 61900 71900 1 0 0 gnd-1.sym
N 62000 72200 62000 72400 4
C 60400 71900 1 0 0 gnd-1.sym
N 60500 72200 60500 72400 4
N 60500 74000 60500 73300 4
N 62000 73300 62000 74000 4
N 59400 74000 63800 74000 4
{
T 60800 74100 5 10 1 1 0 0 1
netname=shaper2
}
C 63800 73900 1 0 0 resistor-2.sym
{
T 64200 74250 5 10 0 0 0 0 1
device=RESISTOR
T 64000 74200 5 10 1 1 0 0 1
refdes=R288
T 64000 73700 5 10 1 1 0 0 1
value=1.5k
}
C 65600 72600 1 90 0 resistor-2.sym
{
T 65250 73000 5 10 0 0 90 0 1
device=RESISTOR
T 65300 72800 5 10 1 1 90 0 1
refdes=R289
T 65600 72800 5 10 1 1 0 0 1
value=47
}
C 65400 71900 1 0 0 gnd-1.sym
N 65500 72200 65500 72600 4
N 65500 74000 65500 73500 4
C 63900 71200 1 180 1 diode-1.sym
{
T 64300 70600 5 10 0 0 180 6 1
device=DIODE
T 64200 70700 5 10 1 1 180 6 1
refdes=D68
T 63900 71200 5 10 0 0 180 0 1
value=1SS133
}
N 63000 71000 63900 71000 4
C 65700 69700 1 90 0 capacitor-1.sym
{
T 65000 69900 5 10 0 0 90 0 1
device=CAPACITOR
T 65200 70000 5 10 1 1 90 0 1
refdes=C83
T 64800 69900 5 10 0 0 90 0 1
symversion=0.1
T 65900 69900 5 10 1 1 90 0 1
value=0.1u
}
C 65400 69000 1 0 0 gnd-1.sym
N 65500 69300 65500 69700 4
N 65500 70600 65500 71000 4
{
T 65400 71100 5 10 1 1 0 0 1
netname=env3
}
C 66500 70900 1 0 0 resistor-2.sym
{
T 66900 71250 5 10 0 0 0 0 1
device=RESISTOR
T 66700 71200 5 10 1 1 0 0 1
refdes=R291
T 66700 70700 5 10 1 1 0 0 1
value=220k
}
N 64800 71000 66500 71000 4
C 68100 72300 1 90 0 resistor-2.sym
{
T 67750 72700 5 10 0 0 90 0 1
device=RESISTOR
T 67800 72500 5 10 1 1 90 0 1
refdes=R290
T 68100 72500 5 10 1 1 0 0 1
value=22k
}
C 68200 69700 1 90 0 capacitor-1.sym
{
T 67500 69900 5 10 0 0 90 0 1
device=CAPACITOR
T 67700 70000 5 10 1 1 90 0 1
refdes=C70
T 67300 69900 5 10 0 0 90 0 1
symversion=0.1
T 68400 69900 5 10 1 1 90 0 1
value=0.0047u
}
C 67900 69000 1 0 0 gnd-1.sym
N 68000 69300 68000 69700 4
C 68500 73500 1 90 0 npn-1.sym
{
T 68000 74100 5 10 0 0 90 0 1
device=NPN_TRANSISTOR
T 68000 74100 5 10 1 1 90 0 1
refdes=Q50
T 67200 74600 5 10 0 1 0 0 1
value=2SC2603F
}
C 70500 69900 1 0 1 npn-1.sym
{
T 69900 70400 5 10 0 0 0 6 1
device=NPN_TRANSISTOR
T 69900 70400 5 10 1 1 0 6 1
refdes=Q46
T 69400 71200 5 10 0 1 270 2 1
value=2SC2603F
}
N 64700 74000 67500 74000 4
N 68000 73500 68000 73200 4
N 68000 72300 68000 70600 4
N 68000 71000 67400 71000 4
C 69900 69000 1 0 0 gnd-1.sym
N 70000 69300 70000 69900 4
N 68000 71000 70000 71000 4
N 70000 71000 70000 70900 4
C 71100 69400 1 90 0 resistor-2.sym
{
T 70750 69800 5 10 0 0 90 0 1
device=RESISTOR
T 70800 69600 5 10 1 1 90 0 1
refdes=R282
T 71100 69600 5 10 1 1 0 0 1
value=22k
}
C 70900 69000 1 0 0 gnd-1.sym
N 71000 70400 71000 70300 4
C 71400 70300 1 0 0 resistor-2.sym
{
T 71800 70650 5 10 0 0 0 0 1
device=RESISTOR
T 71600 70600 5 10 1 1 0 0 1
refdes=R281
T 71600 70100 5 10 1 1 0 0 1
value=100k
}
N 70500 70400 71400 70400 4
N 72300 70400 73000 70400 4
N 63000 71000 63000 78000 4
N 58000 56000 58000 74000 4
{
T 57400 60200 5 10 1 1 0 0 1
netname=osc2
}
N 58000 74000 58500 74000 4
N 71000 69300 71000 69400 4
C 79500 73900 1 0 0 resistor-2.sym
{
T 79900 74250 5 10 0 0 0 0 1
device=RESISTOR
T 79700 74200 5 10 1 1 0 0 1
refdes=R305
T 79700 73700 5 10 1 1 0 0 1
value=10k
}
C 83200 73300 1 90 1 diode-1.sym
{
T 82600 72900 5 10 0 0 90 6 1
device=DIODE
T 82700 73000 5 10 1 1 90 6 1
refdes=D70
T 83200 73300 5 10 0 0 90 0 1
value=1SS133
}
C 81300 72400 1 270 1 diode-1.sym
{
T 81900 72800 5 10 0 0 270 6 1
device=DIODE
T 81800 72700 5 10 1 1 270 6 1
refdes=D69
T 81300 72400 5 10 0 0 270 0 1
value=1SS133
}
C 82900 71900 1 0 0 gnd-1.sym
N 83000 72200 83000 72400 4
C 81400 71900 1 0 0 gnd-1.sym
N 81500 72200 81500 72400 4
N 81500 74000 81500 73300 4
N 83000 73300 83000 74000 4
N 80400 74000 84800 74000 4
{
T 81800 74100 5 10 1 1 0 0 1
netname=shaper1
}
C 84800 73900 1 0 0 resistor-2.sym
{
T 85200 74250 5 10 0 0 0 0 1
device=RESISTOR
T 85000 74200 5 10 1 1 0 0 1
refdes=R304
T 85000 73700 5 10 1 1 0 0 1
value=2.2k
}
C 86600 72600 1 90 0 resistor-2.sym
{
T 86250 73000 5 10 0 0 90 0 1
device=RESISTOR
T 86300 72800 5 10 1 1 90 0 1
refdes=R303
T 86600 72800 5 10 1 1 0 0 1
value=47
}
C 86400 71900 1 0 0 gnd-1.sym
N 86500 72200 86500 72600 4
N 86500 74000 86500 73500 4
C 84900 71200 1 180 1 diode-1.sym
{
T 85300 70600 5 10 0 0 180 6 1
device=DIODE
T 85200 70700 5 10 1 1 180 6 1
refdes=D67
T 84900 71200 5 10 0 0 180 0 1
value=1SS133
}
N 84000 71000 84900 71000 4
C 86700 69700 1 90 0 capacitor-1.sym
{
T 86000 69900 5 10 0 0 90 0 1
device=CAPACITOR
T 86200 70000 5 10 1 1 90 0 1
refdes=C82
T 85800 69900 5 10 0 0 90 0 1
symversion=0.1
T 86900 69900 5 10 1 1 90 0 1
value=0.047u
}
C 86400 69000 1 0 0 gnd-1.sym
N 86500 69300 86500 69700 4
N 86500 70600 86500 71000 4
{
T 86400 71100 5 10 1 1 0 0 1
netname=env2
}
C 87500 70900 1 0 0 resistor-2.sym
{
T 87900 71250 5 10 0 0 0 0 1
device=RESISTOR
T 87700 71200 5 10 1 1 0 0 1
refdes=R295
T 87700 70700 5 10 1 1 0 0 1
value=220k
}
N 85800 71000 87500 71000 4
C 89100 72300 1 90 0 resistor-2.sym
{
T 88750 72700 5 10 0 0 90 0 1
device=RESISTOR
T 88800 72500 5 10 1 1 90 0 1
refdes=R293
T 89100 72500 5 10 1 1 0 0 1
value=220k
}
C 89200 69700 1 90 0 capacitor-1.sym
{
T 88500 69900 5 10 0 0 90 0 1
device=CAPACITOR
T 88700 70000 5 10 1 1 90 0 1
refdes=C79
T 88300 69900 5 10 0 0 90 0 1
symversion=0.1
T 89400 69900 5 10 1 1 90 0 1
value=0.01u
}
C 88900 69000 1 0 0 gnd-1.sym
N 89000 69300 89000 69700 4
C 89500 73500 1 90 0 npn-1.sym
{
T 89000 74100 5 10 0 0 90 0 1
device=NPN_TRANSISTOR
T 89000 74100 5 10 1 1 90 0 1
refdes=Q51
T 88200 74600 5 10 0 1 0 0 1
value=2SC2603F
}
C 91500 69900 1 0 1 npn-1.sym
{
T 90900 70400 5 10 0 0 0 6 1
device=NPN_TRANSISTOR
T 90900 70400 5 10 1 1 0 6 1
refdes=Q49
T 90400 71200 5 10 0 1 270 2 1
value=2SC2603F
}
N 85700 74000 88500 74000 4
N 89000 73500 89000 73200 4
N 89000 72300 89000 70600 4
N 89000 71000 88400 71000 4
C 90900 69000 1 0 0 gnd-1.sym
N 91000 69300 91000 69900 4
N 89000 71000 91000 71000 4
N 91000 71000 91000 70900 4
C 92100 69400 1 90 0 resistor-2.sym
{
T 91750 69800 5 10 0 0 90 0 1
device=RESISTOR
T 91800 69600 5 10 1 1 90 0 1
refdes=R296
T 92100 69600 5 10 1 1 0 0 1
value=22k
}
C 91900 69000 1 0 0 gnd-1.sym
N 92000 70400 92000 70300 4
C 92400 70300 1 0 0 resistor-2.sym
{
T 92800 70650 5 10 0 0 0 0 1
device=RESISTOR
T 92600 70600 5 10 1 1 0 0 1
refdes=R292
T 92600 70100 5 10 1 1 0 0 1
value=100k
}
N 91500 70400 92400 70400 4
N 93300 70400 94000 70400 4
N 79000 74000 79500 74000 4
N 92000 69300 92000 69400 4
N 79000 56000 79000 74000 4
{
T 78500 60200 5 10 1 1 0 0 1
netname=osc1
}
N 84000 71000 84000 78000 4
N 18000 78000 84000 78000 4
N 55500 66000 55500 74000 4
N 73000 66000 73000 70400 4
N 14000 66000 94000 66000 4
N 94000 66000 94000 70400 4
C 57700 80200 1 180 0 capacitor-2.sym
{
T 57500 79500 5 10 0 0 180 0 1
device=POLARIZED_CAPACITOR
T 57100 80300 5 10 1 1 0 0 1
refdes=C78
T 57500 79300 5 10 0 0 180 0 1
symversion=0.1
T 57000 79600 5 10 1 1 0 0 1
value=0.47u
}
N 56800 80000 55000 80000 4
C 59200 79900 1 0 0 resistor-2.sym
{
T 59600 80250 5 10 0 0 0 0 1
device=RESISTOR
T 59400 80200 5 10 1 1 0 0 1
refdes=R294
T 59400 79700 5 10 1 1 0 0 1
value=47k
}
N 59200 80000 57700 80000 4
N 60100 80000 95000 80000 4
N 68500 74000 70000 74000 4
N 70000 74000 70000 80000 4
N 89500 74000 91000 74000 4
N 91000 74000 91000 80000 4
C 95300 81400 1 0 0 resistor-2.sym
{
T 95700 81750 5 10 0 0 0 0 1
device=RESISTOR
T 95500 81700 5 10 1 1 0 0 1
refdes=RVR8
T 95500 81200 5 10 1 1 0 0 1
value=50k
}
N 95300 81500 93000 81500 4
N 93000 81500 93000 80000 4
N 97000 81500 96200 81500 4
N 97000 79800 97000 81500 4
{
T 97100 79800 5 10 1 1 0 0 1
netname=output
}
N 97000 79800 96000 79800 4
C 94100 78000 1 0 0 gnd-1.sym
N 95000 79600 94200 79600 4
N 94200 78300 94200 79600 4
C 22500 61900 1 0 0 resistor-2.sym
{
T 22900 62250 5 10 0 0 0 0 1
device=RESISTOR
T 22700 62200 5 10 1 1 0 0 1
refdes=R251
T 22700 61700 5 10 1 1 0 0 1
value=100k
}
C 22500 60400 1 0 0 resistor-2.sym
{
T 22900 60750 5 10 0 0 0 0 1
device=RESISTOR
T 22700 60700 5 10 1 1 0 0 1
refdes=R252
T 22700 60200 5 10 1 1 0 0 1
value=100k
}
C 22500 63400 1 0 0 resistor-2.sym
{
T 22900 63750 5 10 0 0 0 0 1
device=RESISTOR
T 22700 63700 5 10 1 1 0 0 1
refdes=R250
T 22700 63200 5 10 1 1 0 0 1
value=1k
}
C 22500 58900 1 0 0 resistor-2.sym
{
T 22900 59250 5 10 0 0 0 0 1
device=RESISTOR
T 22700 59200 5 10 1 1 0 0 1
refdes=R253
T 22700 58700 5 10 1 1 0 0 1
value=1k
}
C 25200 60800 1 90 0 zener-1.sym
{
T 24600 61100 5 10 1 1 90 0 1
refdes=X57
T 24600 61200 5 10 0 0 90 0 1
device=ZENER_DIODE_sub
T 25200 60800 5 10 0 0 0 0 1
value=RD18JB2
}
N 22500 59000 21200 59000 4
N 22500 63500 21200 63500 4
N 22500 62000 19000 62000 4
N 19000 62000 19000 59200 4
N 19000 59200 20200 59200 4
N 22500 60500 19000 60500 4
N 25000 62000 23400 62000 4
N 23400 60500 25000 60500 4
N 25000 63500 23400 63500 4
N 23400 59000 25000 59000 4
N 25000 61700 25000 65000 4
N 19000 65000 19000 63700 4
N 19000 63700 20200 63700 4
C 18900 58400 1 0 0 gnd-1.sym
N 20200 58800 19000 58800 4
N 19000 58800 19000 58700 4
C 17600 61300 1 90 0 resistor-2.sym
{
T 17250 61700 5 10 0 0 90 0 1
device=RESISTOR
T 17300 61500 5 10 1 1 90 0 1
refdes=R248
T 17600 61500 5 10 1 1 0 0 1
value=470k
}
C 17400 58400 1 0 0 gnd-1.sym
N 17500 58700 17500 59000 4
C 17700 59000 1 90 0 capacitor-1.sym
{
T 17000 59200 5 10 0 0 90 0 1
device=CAPACITOR
T 17200 59300 5 10 1 1 90 0 1
refdes=C66
T 16800 59200 5 10 0 0 90 0 1
symversion=0.1
T 17900 59200 5 10 1 1 90 0 1
value=0.01u
}
C 15000 60400 1 0 0 resistor-2.sym
{
T 15400 60750 5 10 0 0 0 0 1
device=RESISTOR
T 15200 60700 5 10 1 1 0 0 1
refdes=R247
T 15200 60200 5 10 1 1 0 0 1
value=47k
}
C 15000 62900 1 0 0 resistor-2.sym
{
T 15400 63250 5 10 0 0 0 0 1
device=RESISTOR
T 15200 63200 5 10 1 1 0 0 1
refdes=R249
T 15200 62700 5 10 1 1 0 0 1
value=100k
}
N 17500 61300 17500 59900 4
N 17500 60500 15900 60500 4
{
T 17600 60600 5 10 1 1 0 0 1
netname=env1
}
N 17500 63000 15900 63000 4
N 15000 60500 14000 60500 4
N 14000 60500 14000 64100 4
C 12100 61000 1 90 0 resistor-2.sym
{
T 11750 61400 5 10 0 0 90 0 1
device=RESISTOR
T 11800 61200 5 10 1 1 90 0 1
refdes=R284
T 12100 61200 5 10 1 1 0 0 1
value=10k
}
C 12100 64300 1 90 0 resistor-2.sym
{
T 11750 64700 5 10 0 0 90 0 1
device=RESISTOR
T 11800 64500 5 10 1 1 90 0 1
refdes=R287
T 12100 64500 5 10 1 1 0 0 1
value=100k
}
C 11900 58400 1 0 0 gnd-1.sym
N 12000 58700 12000 61000 4
N 12000 64000 12000 64300 4
C 11800 65800 1 0 0 vcc-1.sym
N 12000 65800 12000 65200 4
N 20200 63300 17500 63300 4
N 17500 62200 17500 63300 4
C 14200 65000 1 90 1 diode-1.sym
{
T 13600 64600 5 10 0 0 90 6 1
device=DIODE
T 13700 64800 5 10 1 1 90 6 1
refdes=D56
T 14200 65000 5 10 0 0 90 0 1
value=1SS133
}
N 48500 61500 48500 65000 4
N 48500 59000 48500 55000 4
N 25000 55000 69500 55000 4
{
T 25200 55200 5 10 1 1 0 0 1
netname=vss
}
N 25000 55000 25000 60800 4
C 12100 73800 1 90 0 resistor-2.sym
{
T 11750 74200 5 10 0 0 90 0 1
device=RESISTOR
T 11800 74000 5 10 1 1 90 0 1
refdes=R244
T 12100 74000 5 10 1 1 0 0 1
value=10k
}
C 12100 71800 1 90 0 resistor-2.sym
{
T 11750 72200 5 10 0 0 90 0 1
device=RESISTOR
T 11800 72000 5 10 1 1 90 0 1
refdes=R246
T 12100 72000 5 10 1 1 0 0 1
value=22k
}
C 14100 73800 1 90 0 resistor-2.sym
{
T 13750 74200 5 10 0 0 90 0 1
device=RESISTOR
T 13800 74000 5 10 1 1 90 0 1
refdes=R245
T 14100 74000 5 10 1 1 0 0 1
value=100
}
C 11100 68600 1 90 0 resistor-2.sym
{
T 10750 69000 5 10 0 0 90 0 1
device=RESISTOR
T 10800 68800 5 10 1 1 90 0 1
refdes=R242
T 11100 68800 5 10 1 1 0 0 1
value=10k
}
C 9500 69900 1 0 0 resistor-2.sym
{
T 9900 70250 5 10 0 0 0 0 1
device=RESISTOR
T 9700 70200 5 10 1 1 0 0 1
refdes=R239
T 9700 69700 5 10 1 1 0 0 1
value=22k
}
C 13500 73500 1 180 1 pnp-1.sym
{
T 14100 73000 5 10 0 0 0 2 1
device=PNP_TRANSISTOR
T 14100 73000 5 10 1 1 0 2 1
refdes=Q40
T 13500 73500 5 10 0 0 0 8 1
value=2SA1115F
}
C 11500 69500 1 0 0 npn-1.sym
{
T 12100 70000 5 10 0 0 0 0 1
device=NPN_TRANSISTOR
T 12100 70000 5 10 1 1 0 0 1
refdes=Q39
T 12600 70800 5 10 0 1 270 0 1
value=2SC2603F
}
N 12000 73800 12000 72700 4
N 12000 71800 12000 70500 4
N 11500 70000 10400 70000 4
N 11000 69500 11000 70000 4
N 13500 73000 12000 73000 4
N 14000 73800 14000 73500 4
C 11800 75300 1 0 0 vcc-1.sym
N 12000 75300 12000 74700 4
C 13800 75300 1 0 0 vcc-1.sym
N 14000 75300 14000 74700 4
C 10900 67900 1 0 0 gnd-1.sym
N 11000 68200 11000 68600 4
N 14000 65000 14000 72500 4
N 12000 71000 21000 71000 4
N 9500 70000 8600 70000 4
{
T 8200 70000 5 10 1 1 0 0 1
netname=trig
}
C 11900 67900 1 0 0 gnd-1.sym
N 12000 68200 12000 69500 4
C 48100 59600 1 0 0 inverter.sym
{
T 49300 61400 5 10 1 1 0 0 1
refdes=XU36f
T 48595 60430 5 10 0 1 0 0 1
device=4069_sub
T 46700 57800 5 10 0 0 0 0 1
model-name=inverter
T 46700 57800 5 10 0 0 0 0 1
value=CD4069UB
}
C 47400 58700 1 0 0 inverter.sym
{
T 48600 60500 5 10 1 1 0 0 1
refdes=XU36e
T 47895 59530 5 10 0 1 0 0 1
device=4069_sub
T 46700 57800 5 10 0 0 0 0 1
model-name=inverter
T 46700 57800 5 10 0 0 0 0 1
value=CD4069UB
}
C 46700 57800 1 0 0 inverter.sym
{
T 47900 59600 5 10 1 1 0 0 1
refdes=XU36d
T 47195 58630 5 10 0 1 0 0 1
device=4069_sub
T 46700 57800 5 10 0 0 0 0 1
model-name=inverter
T 46700 57800 5 10 0 0 0 0 1
value=CD4069UB
}
N 49200 61500 47800 61500 4
N 47800 61500 47800 59600 4
N 48500 60500 48500 61500 4
N 47800 59000 49200 59000 4
N 49200 59000 49200 60800 4
N 48500 59900 48500 59000 4
N 48600 61100 46800 61100 4
N 46800 61100 46800 59300 4
N 46800 59300 47200 59300 4
N 47900 60200 46800 60200 4
N 46800 60200 45800 60200 4
N 49700 61100 50400 61100 4
N 50400 61100 50400 59300 4
N 50400 59300 48300 59300 4
N 49000 60200 50400 60200 4
N 50400 60200 52200 60200 4
N 49200 61500 49200 61400 4
N 14000 79300 15000 79300 4
N 34000 74200 35500 74200 4
C 69100 59600 1 0 0 inverter.sym
{
T 70300 61400 5 10 1 1 0 0 1
refdes=XU36c
T 69595 60430 5 10 0 1 0 0 1
device=4069_sub
T 46700 57800 5 10 0 0 0 0 1
model-name=inverter
T 46700 57800 5 10 0 0 0 0 1
value=CD4069UB
}
C 68400 58700 1 0 0 inverter.sym
{
T 69600 60500 5 10 1 1 0 0 1
refdes=XU36b
T 68895 59530 5 10 0 1 0 0 1
device=4069_sub
T 46700 57800 5 10 0 0 0 0 1
model-name=inverter
T 46700 57800 5 10 0 0 0 0 1
value=CD4069UB
}
C 67700 57800 1 0 0 inverter.sym
{
T 68900 59600 5 10 1 1 0 0 1
refdes=XU36a
T 68195 58630 5 10 0 1 0 0 1
device=4069_sub
T 67700 57800 5 10 0 0 0 0 1
model-name=inverter
T 67700 57800 5 10 0 0 0 0 1
value=CD4069UB
}
N 70200 61500 68800 61500 4
N 68800 61500 68800 59600 4
N 69500 60500 69500 61500 4
N 68800 59000 70200 59000 4
N 70200 59000 70200 60800 4
N 69500 59900 69500 59000 4
N 69600 61100 67800 61100 4
N 67800 61100 67800 59300 4
N 67800 59300 68200 59300 4
N 68900 60200 67800 60200 4
N 70700 61100 71400 61100 4
N 71400 61100 71400 59300 4
N 71400 59300 69300 59300 4
N 70000 60200 71400 60200 4
N 70200 61500 70200 61400 4
N 67800 60200 67200 60200 4
N 71400 60200 73200 60200 4
N 69500 61500 69500 65000 4
N 19000 65000 69500 65000 4
{
T 25100 64700 5 10 1 1 0 0 1
netname=vdd
}
N 69500 59000 69500 55000 4
C 12100 63100 1 90 0 resistor-2.sym
{
T 11750 63500 5 10 0 0 90 0 1
device=RESISTOR
T 11800 63300 5 10 1 1 90 0 1
refdes=RVR6
T 12100 63300 5 10 1 1 0 0 1
value=10k
}
N 12000 63000 15000 63000 4
N 12000 61900 12000 63100 4
N 17500 74400 17500 71000 4
C 13000 79700 1 180 1 opamp-1.sym
{
T 13700 78900 5 10 0 0 180 6 1
device=OPAMP
T 13700 78300 5 10 0 0 180 6 1
symversion=0.1
T 13000 79700 5 10 0 0 180 6 1
value=TL072
T 13700 79100 5 10 1 1 180 6 1
refdes=XIC34b
}
C 13300 78900 1 180 1 vcc-1.sym
C 13700 79700 1 0 1 vee-1.sym
C 18700 74200 1 180 1 opamp-1.sym
{
T 19400 73400 5 10 0 0 180 6 1
device=OPAMP
T 19400 72800 5 10 0 0 180 6 1
symversion=0.1
T 18700 74200 5 10 0 0 180 6 1
value=TL072
T 19400 73600 5 10 1 1 180 6 1
refdes=XIC34a
}
C 19000 73400 1 180 1 vcc-1.sym
C 19400 74200 1 0 1 vee-1.sym
C 33000 74600 1 180 1 opamp-1.sym
{
T 33700 73800 5 10 0 0 180 6 1
device=OPAMP
T 33700 73200 5 10 0 0 180 6 1
symversion=0.1
T 33000 74600 5 10 0 0 180 6 1
value=TL072
T 33700 74000 5 10 1 1 180 6 1
refdes=XIC40a
}
C 33300 73800 1 180 1 vcc-1.sym
C 33700 74600 1 0 1 vee-1.sym
C 41500 74600 1 180 1 opamp-1.sym
{
T 42200 73800 5 10 0 0 180 6 1
device=OPAMP
T 42200 73200 5 10 0 0 180 6 1
symversion=0.1
T 41500 74600 5 10 0 0 180 6 1
value=TL072
T 42200 74000 5 10 1 1 180 6 1
refdes=XIC39a
}
C 41800 73800 1 180 1 vcc-1.sym
C 42200 74600 1 0 1 vee-1.sym
C 52500 80200 1 180 1 opamp-1.sym
{
T 53200 79400 5 10 0 0 180 6 1
device=OPAMP
T 53200 78800 5 10 0 0 180 6 1
symversion=0.1
T 52500 80200 5 10 0 0 180 6 1
value=TL072
T 53200 79600 5 10 1 1 180 6 1
refdes=XIC39b
}
C 52800 79400 1 180 1 vcc-1.sym
C 53200 80200 1 0 1 vee-1.sym
C 95000 80200 1 180 1 opamp-1.sym
{
T 95700 79400 5 10 0 0 180 6 1
device=OPAMP
T 95700 78800 5 10 0 0 180 6 1
symversion=0.1
T 95000 80200 5 10 0 0 180 6 1
value=TL072
T 95700 79600 5 10 1 1 180 6 1
refdes=XIC40b
}
C 95300 79400 1 180 1 vcc-1.sym
C 95700 80200 1 0 1 vee-1.sym
C 20200 63900 1 180 1 opamp-1.sym
{
T 20900 63100 5 10 0 0 180 6 1
device=OPAMP
T 20900 62500 5 10 0 0 180 6 1
symversion=0.1
T 20200 63900 5 10 0 0 180 6 1
value=TL072
T 20900 63300 5 10 1 1 180 6 1
refdes=XIC35a
}
C 20500 63100 1 180 1 vcc-1.sym
C 20900 63900 1 0 1 vee-1.sym
C 20200 59400 1 180 1 opamp-1.sym
{
T 20900 58600 5 10 0 0 180 6 1
device=OPAMP
T 20900 58000 5 10 0 0 180 6 1
symversion=0.1
T 20200 59400 5 10 0 0 180 6 1
value=TL072
T 20900 58800 5 10 1 1 180 6 1
refdes=XIC35b
}
C 20500 58600 1 180 1 vcc-1.sym
C 20900 59400 1 0 1 vee-1.sym
C 42500 60600 1 180 1 opamp-1.sym
{
T 43200 59800 5 10 0 0 180 6 1
device=OPAMP
T 43200 59200 5 10 0 0 180 6 1
symversion=0.1
T 42500 60600 5 10 0 0 180 6 1
value=TL072
T 43200 60000 5 10 1 1 180 6 1
refdes=XIC37a
}
C 42800 59800 1 180 1 vcc-1.sym
C 43200 60600 1 0 1 vee-1.sym
C 63500 60600 1 180 1 opamp-1.sym
{
T 64200 59800 5 10 0 0 180 6 1
device=OPAMP
T 64200 59200 5 10 0 0 180 6 1
symversion=0.1
T 63500 60600 5 10 0 0 180 6 1
value=TL072
T 64200 60000 5 10 1 1 180 6 1
refdes=XIC38a
}
C 63800 59800 1 180 1 vcc-1.sym
C 64200 60600 1 0 1 vee-1.sym
C 55600 60400 1 180 1 opamp-1.sym
{
T 56300 59600 5 10 0 0 180 6 1
device=OPAMP
T 56300 59000 5 10 0 0 180 6 1
symversion=0.1
T 55600 60400 5 10 0 0 180 6 1
value=TL072
T 56300 59800 5 10 1 1 180 6 1
refdes=XIC37b
}
C 55900 59600 1 180 1 vcc-1.sym
C 56300 60400 1 0 1 vee-1.sym
C 76600 60400 1 180 1 opamp-1.sym
{
T 77300 59600 5 10 0 0 180 6 1
device=OPAMP
T 77300 59000 5 10 0 0 180 6 1
symversion=0.1
T 76600 60400 5 10 0 0 180 6 1
value=TL072
T 77300 59800 5 10 1 1 180 6 1
refdes=XIC38b
}
C 76900 59600 1 180 1 vcc-1.sym
C 77300 60400 1 0 1 vee-1.sym
N 42000 60400 42000 56000 4
